# Blender MTL File: 'complexPlaneWithTexture.blend'
# Material Count: 1

newmtl metal
Ns 0.000000
Ka 0.000000 0.000000 0.000000
Kd 0.640000 0.640000 0.640000
Ks 0.800000 0.800000 0.800000
Ni 1.000000
d 1.000000
illum 2
