# Blender v2.74 (sub 0) OBJ File: 'complexPlaneWithTexture.blend'
# www.blender.org
mtllib complexPlane.mtl
o Plane_Plane.001
v 0.183899 -0.070240 -0.103423
v 0.183899 -0.070240 0.658593
v -0.153433 -0.070240 0.658593
v -0.153433 -0.070240 -0.103423
v 0.240486 -0.046749 0.195373
v 0.244899 -0.046749 0.278786
v 0.243819 -0.046749 0.297740
v 0.256058 -0.039324 0.295733
v 0.257137 -0.033940 0.286712
v 0.257137 -0.036800 -0.178289
v 0.241511 -0.036009 -0.401928
v 0.241511 -0.036008 -0.718147
v 0.192505 -0.064310 -0.602714
v 0.200120 -0.064311 -0.017403
v 0.030341 -0.064311 -0.017403
v 0.030341 -0.064310 -0.570252
v -0.002785 -0.064310 -0.570252
v -0.002785 -0.064311 -0.017403
v -0.172565 -0.064311 -0.017403
v -0.164950 -0.064310 -0.602714
v -0.210386 -0.036008 -0.718147
v -0.210386 -0.036009 -0.401928
v -0.226378 -0.036800 -0.178289
v -0.226378 -0.033940 0.286712
v -0.225291 -0.039324 0.295733
v -0.213353 -0.046749 0.297740
v -0.214433 -0.046749 0.278786
v -0.210020 -0.046749 0.195373
v -0.196951 -0.046749 0.127046
v -0.175727 -0.046749 0.087340
v -0.147166 -0.046749 0.052537
v -0.112363 -0.046749 0.023975
v -0.072657 -0.046749 0.002751
v -0.029573 -0.046749 -0.010318
v 0.015233 -0.046749 -0.014731
v 0.060039 -0.046749 -0.010318
v 0.103122 -0.046749 0.002751
v 0.142829 -0.046749 0.023975
v 0.177631 -0.046749 0.052537
v 0.206193 -0.046749 0.087340
v 0.227417 -0.046749 0.127046
v -0.433778 -0.041378 -0.677206
v -0.380166 -0.041378 -0.775883
v 0.464903 -0.041378 -0.677206
v 0.411291 -0.041378 -0.775883
v -0.505814 -0.036640 -0.178289
v -0.664619 -0.036640 -0.213306
v -0.731195 -0.036640 -0.004830
v 0.536574 -0.036640 -0.178289
v 0.695378 -0.036640 -0.213306
v 0.761954 -0.036640 -0.004830
v 0.103122 -0.065972 0.553336
v 0.142829 -0.065972 0.532113
v 0.177631 -0.065972 0.503551
v 0.206193 -0.065972 0.468748
v 0.227417 -0.065972 0.429042
v 0.240486 -0.065972 0.356260
v -0.210020 -0.065972 0.356260
v -0.196951 -0.065972 0.429042
v -0.175727 -0.065972 0.468748
v -0.147165 -0.065972 0.503551
v -0.112362 -0.065972 0.532113
v -0.072656 -0.065972 0.553336
v -0.029572 -0.065972 0.566405
v 0.015233 -0.065972 0.570818
v 0.060039 -0.065972 0.566405
v 0.054190 -0.033641 0.875216
v 0.049994 -0.044445 0.841033
v 0.039118 -0.044445 0.885699
v 0.042008 -0.033641 0.925244
v 0.029664 -0.106184 -0.602714
v -0.002108 -0.106184 -0.602714
v 0.183899 0.019919 -0.103423
v -0.153433 0.019919 -0.103423
v -0.153433 0.019919 0.658593
v 0.183899 0.019919 0.658593
v -0.210386 -0.018564 -0.718147
v -0.380166 -0.008940 -0.775883
v -0.433778 -0.008940 -0.677206
v -0.210386 -0.018565 -0.401928
v 0.241511 -0.018564 -0.718147
v 0.411291 -0.008940 -0.775883
v 0.464903 -0.008940 -0.677206
v 0.241511 -0.018565 -0.401928
v -0.226378 -0.017412 0.286712
v -0.505814 -0.011197 -0.178289
v -0.226378 -0.013418 -0.178289
v -0.731195 -0.011197 -0.004830
v -0.664619 -0.011197 -0.213306
v 0.257137 -0.017412 0.286712
v 0.536574 -0.011197 -0.178289
v 0.257137 -0.013418 -0.178289
v 0.761954 -0.011197 -0.004830
v 0.695378 -0.011197 -0.213306
v 0.103122 0.015651 0.553336
v 0.060039 0.015651 0.566405
v 0.015233 0.015651 0.570818
v -0.029572 0.015651 0.566405
v -0.072656 0.015651 0.553336
v -0.112362 0.015651 0.532113
v -0.147165 0.015651 0.503551
v -0.175727 0.015651 0.468748
v -0.196951 0.015651 0.429042
v -0.210020 0.015651 0.356260
v -0.213353 0.006028 0.297740
v -0.214433 0.006028 0.278786
v -0.210020 0.006028 0.195373
v -0.196951 0.006028 0.127046
v -0.175727 0.006028 0.087340
v -0.147166 0.006028 0.052537
v -0.112363 0.006028 0.023975
v -0.072657 0.006028 0.002751
v -0.029573 0.006028 -0.010318
v 0.015233 0.006028 -0.014731
v 0.060039 0.006028 -0.010318
v 0.103122 0.006028 0.002751
v 0.142829 0.006028 0.023975
v 0.177631 0.006028 0.052537
v 0.206193 0.006028 0.087340
v 0.227417 0.006028 0.127046
v 0.240486 -0.001912 0.195373
v 0.244899 0.006028 0.278786
v 0.243819 0.006028 0.297740
v 0.240486 0.015651 0.356260
v 0.227417 0.015651 0.429042
v 0.206193 0.015651 0.468748
v 0.177631 0.015651 0.503551
v 0.142829 0.015651 0.532113
v -0.066415 0.017570 0.699209
v -0.068010 0.017570 0.658825
v -0.061993 0.052538 0.651395
v -0.060512 0.052538 0.688853
v 0.096500 0.017570 0.489792
v 0.098096 0.017570 0.658825
v 0.092078 0.052538 0.651395
v 0.090598 0.052538 0.494610
v 0.256058 -0.007262 0.295733
v -0.061688 0.017570 0.374548
v -0.054013 0.017570 0.270592
v -0.049010 0.052538 0.291292
v -0.056129 0.052538 0.387715
v 0.091774 0.017570 0.756279
v 0.084099 0.017570 0.821341
v 0.079095 0.052538 0.802135
v 0.086214 0.052538 0.741788
v -0.031099 0.017570 0.128320
v -0.016740 0.017570 0.084311
v -0.014437 0.052538 0.118508
v -0.027756 0.052538 0.159328
v 0.061185 0.017570 0.932198
v 0.046826 0.017570 0.991165
v 0.044523 0.052538 0.959655
v 0.057841 0.052538 0.904960
v 0.015043 0.017570 1.102731
v -0.001160 0.017570 1.056110
v 0.000014 0.052538 1.019894
v 0.015043 0.052538 1.063137
v 0.015043 0.017570 -0.007811
v 0.031246 0.017570 0.032828
v 0.030072 0.052538 0.070755
v 0.015043 0.052538 0.033062
v -0.031099 0.017570 0.932198
v -0.043685 0.017570 0.873826
v -0.039429 0.052538 0.850817
v -0.027756 0.052538 0.904961
v 0.061185 0.017570 0.128320
v 0.073770 0.017570 0.183701
v 0.069515 0.052538 0.210697
v 0.057841 0.052538 0.159328
v -0.061688 0.017570 0.756280
v -0.056129 0.052538 0.741789
v 0.091774 0.017570 0.374548
v 0.086214 0.052538 0.387715
v -0.066415 0.017570 0.489792
v -0.060512 0.052538 0.494610
v 0.096500 0.017570 0.699209
v 0.090598 0.052538 0.688853
v -0.225291 -0.007262 0.295733
v -0.043685 0.017570 0.183701
v -0.039430 0.052538 0.210697
v 0.073770 0.017570 0.873825
v 0.069515 0.052538 0.850817
v -0.001160 0.017570 0.032828
v 0.000014 0.052538 0.070755
v 0.031246 0.017570 1.056110
v 0.030072 0.052538 1.019894
v -0.016740 0.017570 0.991165
v -0.014437 0.052538 0.959655
v 0.046826 0.017570 0.084311
v 0.044523 0.052538 0.118508
v -0.054013 0.017570 0.821341
v -0.049010 0.052538 0.802136
v 0.084099 0.017570 0.270592
v 0.079095 0.052538 0.291292
v 0.206193 -0.001912 0.087340
v 0.227417 -0.001912 0.127046
v 0.177631 -0.001912 0.052537
v 0.142829 -0.001912 0.023975
v 0.103122 -0.001912 0.002751
v 0.060039 -0.001912 -0.010318
v 0.015233 -0.001912 -0.014731
v -0.029573 -0.001912 -0.010318
v -0.072657 -0.001912 0.002751
v -0.112363 -0.001912 0.023975
v -0.147166 -0.001912 0.052537
v -0.175727 -0.001912 0.087340
v -0.196951 -0.001912 0.127046
v -0.210020 -0.001912 0.195373
v -0.214433 -0.001912 0.278786
v -0.213353 -0.001912 0.297740
v -0.225291 -0.007716 0.295733
v -0.226378 -0.010404 0.286712
v -0.226378 -0.010404 -0.178289
v -0.210386 -0.012652 -0.401928
v -0.210386 -0.012651 -0.718147
v 0.241511 -0.012652 -0.401928
v 0.241511 -0.012651 -0.718147
v 0.257137 -0.010404 -0.178289
v 0.257137 -0.010404 0.286712
v 0.256058 -0.007716 0.295733
v 0.243819 -0.001912 0.297740
v 0.244899 -0.001912 0.278786
v -0.164950 0.006233 -0.602714
v 0.192505 0.006233 -0.602714
v -0.002785 0.006233 -0.570252
v -0.002785 -0.106184 -0.570252
v 0.030341 -0.106184 -0.570252
v 0.030341 0.006233 -0.570252
v -0.172565 -0.106185 -0.017403
v -0.172565 0.006232 -0.017403
v 0.200120 0.006232 -0.017403
v 0.200120 -0.106185 -0.017403
v 0.104987 0.042261 -0.043747
v 0.104987 0.042250 -0.626461
v 0.090066 0.040781 -0.626460
v 0.090066 0.040791 -0.043747
v 0.075719 0.036429 -0.626460
v 0.075719 0.036439 -0.043747
v 0.062497 0.029361 -0.626460
v 0.062497 0.029371 -0.043746
v 0.050907 0.019850 -0.626459
v 0.050907 0.019860 -0.043746
v 0.041396 0.008260 -0.626458
v 0.041396 0.008270 -0.043745
v 0.034328 -0.004963 -0.626457
v 0.034328 -0.004952 -0.043744
v 0.029976 -0.019310 -0.626456
v 0.029976 -0.019299 -0.043743
v 0.028506 -0.034230 -0.626455
v 0.028506 -0.034220 -0.043741
v 0.029976 -0.049151 -0.626454
v 0.029976 -0.049141 -0.043740
v 0.034328 -0.063498 -0.626452
v 0.034328 -0.063488 -0.043739
v 0.041396 -0.076721 -0.626451
v 0.041396 -0.076710 -0.043738
v 0.050907 -0.088310 -0.626450
v 0.050907 -0.088300 -0.043737
v 0.062497 -0.097822 -0.626450
v 0.062497 -0.097811 -0.043737
v 0.075719 -0.104889 -0.626449
v 0.075719 -0.104879 -0.043736
v 0.090066 -0.109242 -0.626449
v 0.090066 -0.109231 -0.043736
v 0.104987 -0.110711 -0.626449
v 0.104987 -0.110701 -0.043736
v 0.119908 -0.109242 -0.626449
v 0.119908 -0.109231 -0.043736
v 0.134255 -0.104889 -0.626449
v 0.134255 -0.104879 -0.043736
v 0.147477 -0.097822 -0.626450
v 0.147477 -0.097811 -0.043737
v 0.159067 -0.088310 -0.626450
v 0.159067 -0.088300 -0.043737
v 0.168578 -0.076721 -0.626451
v 0.168578 -0.076710 -0.043738
v 0.175646 -0.063498 -0.626452
v 0.175646 -0.063488 -0.043739
v 0.179998 -0.049151 -0.626454
v 0.179998 -0.049141 -0.043740
v 0.181468 -0.034230 -0.626455
v 0.181468 -0.034220 -0.043741
v 0.179998 -0.019310 -0.626456
v 0.179998 -0.019299 -0.043743
v 0.175646 -0.004962 -0.626457
v 0.175646 -0.004952 -0.043744
v 0.168578 0.008260 -0.626458
v 0.168578 0.008270 -0.043745
v 0.159067 0.019850 -0.626459
v 0.159067 0.019860 -0.043746
v 0.147477 0.029361 -0.626460
v 0.147477 0.029371 -0.043746
v 0.134255 0.036429 -0.626460
v 0.134255 0.036439 -0.043747
v 0.119908 0.040781 -0.626460
v 0.119908 0.040791 -0.043747
v -0.080251 0.042261 -0.043747
v -0.080251 0.042250 -0.626461
v -0.095172 0.040781 -0.626460
v -0.095172 0.040791 -0.043747
v -0.109519 0.036429 -0.626460
v -0.109519 0.036439 -0.043747
v -0.122742 0.029361 -0.626460
v -0.122742 0.029371 -0.043746
v -0.134332 0.019850 -0.626459
v -0.134332 0.019860 -0.043746
v -0.143843 0.008260 -0.626458
v -0.143843 0.008270 -0.043745
v -0.150910 -0.004963 -0.626457
v -0.150910 -0.004952 -0.043744
v -0.155263 -0.019310 -0.626456
v -0.155263 -0.019299 -0.043743
v -0.156732 -0.034230 -0.626455
v -0.156732 -0.034220 -0.043741
v -0.155263 -0.049151 -0.626454
v -0.155263 -0.049141 -0.043740
v -0.150910 -0.063498 -0.626452
v -0.150910 -0.063488 -0.043739
v -0.143843 -0.076721 -0.626451
v -0.143843 -0.076710 -0.043738
v -0.134332 -0.088310 -0.626450
v -0.134332 -0.088300 -0.043737
v -0.122742 -0.097822 -0.626450
v -0.122742 -0.097811 -0.043737
v -0.109519 -0.104889 -0.626449
v -0.109519 -0.104879 -0.043736
v -0.095172 -0.109242 -0.626449
v -0.095172 -0.109231 -0.043736
v -0.080251 -0.110711 -0.626449
v -0.080251 -0.110701 -0.043736
v -0.065331 -0.109242 -0.626449
v -0.065331 -0.109231 -0.043736
v -0.050984 -0.104889 -0.626449
v -0.050984 -0.104879 -0.043736
v -0.037761 -0.097822 -0.626450
v -0.037761 -0.097811 -0.043737
v -0.026171 -0.088310 -0.626450
v -0.026171 -0.088300 -0.043737
v -0.016660 -0.076721 -0.626451
v -0.016660 -0.076710 -0.043738
v -0.009593 -0.063498 -0.626452
v -0.009593 -0.063488 -0.043739
v -0.005240 -0.049151 -0.626454
v -0.005240 -0.049141 -0.043740
v -0.003771 -0.034230 -0.626455
v -0.003771 -0.034220 -0.043741
v -0.005240 -0.019310 -0.626456
v -0.005240 -0.019299 -0.043743
v -0.009593 -0.004962 -0.626457
v -0.009593 -0.004952 -0.043744
v -0.016660 0.008260 -0.626458
v -0.016660 0.008270 -0.043745
v -0.026172 0.019850 -0.626459
v -0.026172 0.019860 -0.043746
v -0.037761 0.029361 -0.626460
v -0.037761 0.029371 -0.043746
v -0.050984 0.036429 -0.626460
v -0.050984 0.036439 -0.043747
v -0.065331 0.040781 -0.626460
v -0.065331 0.040791 -0.043747
v -0.002785 0.006232 -0.017403
v 0.030341 0.006232 -0.017403
v 0.029664 0.022340 -0.602714
v -0.002785 -0.106184 -0.602714
v -0.002785 0.022340 -0.602714
v -0.226378 0.013625 -0.256687
v -0.210386 0.131434 -0.435610
v -0.210386 0.131435 -0.590908
v -0.210386 -0.004518 -0.602079
v 0.241511 -0.004518 -0.602079
v 0.241511 0.131435 -0.590908
v 0.241511 0.131434 -0.435610
v 0.257137 0.013625 -0.256687
v -0.060512 -0.017867 0.688853
v -0.061993 -0.017867 0.651395
v 0.090598 -0.017867 0.494610
v 0.092078 -0.017867 0.651395
v -0.056129 -0.017867 0.387715
v -0.049010 -0.017867 0.291292
v 0.086214 -0.017867 0.741788
v 0.079095 -0.017867 0.802135
v -0.027756 -0.017867 0.159328
v -0.014437 -0.017867 0.118508
v 0.057841 -0.017867 0.904960
v 0.044523 -0.017867 0.959655
v 0.015043 -0.017867 1.063137
v 0.000014 -0.017867 1.019894
v 0.015043 -0.017867 0.033062
v 0.030072 -0.017867 0.070755
v -0.027756 -0.017867 0.904961
v -0.039429 -0.017867 0.850817
v 0.057841 -0.017867 0.159328
v 0.069515 -0.017867 0.210697
v -0.056129 -0.017867 0.741789
v 0.086214 -0.017867 0.387715
v -0.060512 -0.017867 0.494610
v 0.090598 -0.017867 0.688853
v -0.039430 -0.017867 0.210697
v 0.069515 -0.017867 0.850817
v 0.000014 -0.017867 0.070755
v 0.030072 -0.017867 1.019894
v -0.014437 -0.017867 0.959655
v 0.044523 -0.017867 0.118508
v -0.049010 -0.017867 0.802136
v 0.079095 -0.017867 0.291292
v 0.064868 -0.033641 0.825692
v 0.073631 -0.033641 0.781162
v 0.080143 -0.033641 0.725963
v 0.084153 -0.033641 0.677544
v 0.085507 -0.033641 0.643281
v 0.084153 -0.033641 0.499871
v 0.080143 -0.033641 0.402095
v 0.073631 -0.033641 0.313898
v 0.064868 -0.033641 0.240178
v 0.054190 -0.033641 0.193191
v 0.042008 -0.033641 0.155853
v 0.028790 -0.033641 0.112174
v 0.015043 -0.033641 0.077695
v 0.001296 -0.033641 0.112174
v -0.011923 -0.033641 0.155853
v -0.024105 -0.033641 0.193191
v -0.034783 -0.033641 0.240178
v -0.043546 -0.033641 0.313898
v -0.050057 -0.033641 0.402095
v -0.054067 -0.033641 0.499871
v -0.055421 -0.033641 0.643281
v -0.054067 -0.033641 0.677544
v -0.050057 -0.033641 0.725964
v -0.043546 -0.033641 0.781163
v -0.034783 -0.033641 0.825692
v -0.024105 -0.033641 0.875216
v -0.011923 -0.033641 0.925244
v 0.001296 -0.033641 0.980345
v 0.015043 -0.033641 1.019899
v 0.028790 -0.033641 0.980345
v 0.028790 0.068781 0.980345
v 0.042008 0.068781 0.925244
v 0.015043 0.068781 1.019899
v 0.001296 0.068781 0.980345
v -0.011923 0.068781 0.925244
v -0.024105 0.068781 0.875216
v -0.034783 0.068781 0.825692
v -0.043546 0.068781 0.781163
v -0.050057 0.068781 0.725964
v -0.054067 0.068781 0.677544
v -0.055421 0.068781 0.643281
v -0.054067 0.068781 0.499871
v -0.050057 0.068781 0.402095
v -0.043546 0.068781 0.313898
v -0.034783 0.068781 0.240178
v -0.024105 0.068781 0.193191
v -0.011923 0.068781 0.155853
v 0.001296 0.068781 0.112174
v 0.015043 0.068781 0.077695
v 0.028790 0.068781 0.112174
v 0.042008 0.068781 0.155853
v 0.054190 0.068781 0.193191
v 0.064868 0.068781 0.240178
v 0.073631 0.068781 0.313898
v 0.080143 0.068781 0.402095
v 0.084153 0.068781 0.499871
v 0.085507 0.068781 0.643281
v 0.084153 0.068781 0.677544
v 0.080143 0.068781 0.725963
v 0.073631 0.068781 0.781162
v 0.064868 0.068781 0.825692
v 0.054190 0.068781 0.875216
v 0.059528 -0.044445 0.796816
v 0.067352 -0.044445 0.757060
v 0.073165 -0.044445 0.707777
v 0.076745 -0.044445 0.664547
v 0.077954 -0.044445 0.633956
v 0.076745 -0.044445 0.505917
v 0.073165 -0.044445 0.418621
v 0.067352 -0.044445 0.339876
v 0.059528 -0.044445 0.274058
v 0.049994 -0.044445 0.232107
v 0.039118 -0.044445 0.198771
v 0.027316 -0.044445 0.159773
v 0.015043 -0.044445 0.128990
v 0.002769 -0.044445 0.159773
v -0.009032 -0.044445 0.198771
v -0.019909 -0.044445 0.232107
v -0.029442 -0.044445 0.274058
v -0.037266 -0.044445 0.339876
v -0.043080 -0.044445 0.418621
v -0.046660 -0.044445 0.505917
v -0.047869 -0.044445 0.633956
v -0.046660 -0.044445 0.664547
v -0.043080 -0.044445 0.707777
v -0.037266 -0.044445 0.757060
v -0.029442 -0.044445 0.796816
v -0.019909 -0.044445 0.841033
v -0.009032 -0.044445 0.885699
v 0.002769 -0.044445 0.934894
v 0.015043 -0.044445 0.970209
v 0.027316 -0.044445 0.934894
v 0.027316 0.079585 0.934894
v 0.039118 0.079585 0.885699
v 0.015043 0.079585 0.970209
v 0.002769 0.079585 0.934894
v -0.009032 0.079585 0.885699
v -0.019909 0.079585 0.841033
v -0.029442 0.079585 0.796816
v -0.037266 0.079585 0.757060
v -0.043080 0.079585 0.707777
v -0.046660 0.079585 0.664547
v -0.047869 0.079585 0.633956
v -0.046660 0.079585 0.505917
v -0.043080 0.079585 0.418621
v -0.037266 0.079585 0.339876
v -0.029442 0.079585 0.274058
v -0.019909 0.079585 0.232107
v -0.009032 0.079585 0.198771
v 0.002769 0.079585 0.159773
v 0.015043 0.079585 0.128990
v 0.027316 0.079585 0.159773
v 0.039118 0.079585 0.198771
v 0.049994 0.079585 0.232107
v 0.059528 0.079585 0.274058
v 0.067352 0.079585 0.339876
v 0.073165 0.079585 0.418621
v 0.076745 0.079585 0.505917
v 0.077954 0.079585 0.633956
v 0.076745 0.079585 0.664547
v 0.073165 0.079585 0.707777
v 0.067352 0.079585 0.757060
v 0.059528 0.079585 0.796816
v 0.049994 0.079585 0.841033
v 0.035179 0.086404 0.831804
v 0.033808 0.089399 0.813042
v 0.042285 0.089399 0.778228
v 0.044276 0.086404 0.794446
v 0.031085 0.094835 0.775788
v 0.029460 0.097854 0.753552
v 0.035973 0.097854 0.726804
v 0.038333 0.094835 0.746025
v 0.025308 0.086404 0.872951
v 0.015043 0.086404 0.902488
v 0.004777 0.086404 0.872951
v -0.005094 0.086404 0.831804
v -0.014191 0.086404 0.794446
v -0.022164 0.086404 0.757463
v -0.028708 0.086404 0.724211
v -0.033571 0.086404 0.682992
v -0.036565 0.086404 0.646834
v -0.037576 0.086404 0.621248
v -0.036565 0.086404 0.514157
v -0.033571 0.086404 0.441143
v -0.028708 0.086404 0.375282
v -0.022164 0.086404 0.320231
v -0.014191 0.086404 0.285144
v -0.005094 0.086404 0.257262
v 0.004777 0.086404 0.224644
v 0.015043 0.086404 0.198898
v 0.025308 0.086404 0.224644
v 0.035179 0.086404 0.257262
v 0.044276 0.086404 0.285144
v 0.052250 0.086404 0.320231
v 0.058794 0.086404 0.375282
v 0.063656 0.086404 0.441143
v 0.066650 0.086404 0.514157
v 0.067662 0.086404 0.621248
v 0.066650 0.086404 0.646834
v 0.063656 0.086404 0.682991
v 0.058794 0.086404 0.724211
v 0.052250 0.086404 0.757463
v 0.028601 0.099020 0.741794
v 0.034726 0.099020 0.716640
v 0.035179 -0.051264 0.831804
v 0.025308 -0.051264 0.872951
v 0.044276 -0.051264 0.794446
v 0.052250 -0.051264 0.757463
v 0.058794 -0.051264 0.724211
v 0.063656 -0.051264 0.682991
v 0.066650 -0.051264 0.646834
v 0.067662 -0.051264 0.621248
v 0.066650 -0.051264 0.514157
v 0.063656 -0.051264 0.441143
v 0.058794 -0.051264 0.375282
v 0.052250 -0.051264 0.320231
v 0.044276 -0.051264 0.285144
v 0.035179 -0.051264 0.257262
v 0.025308 -0.051264 0.224644
v 0.015043 -0.051264 0.198898
v 0.004777 -0.051264 0.224644
v -0.005094 -0.051264 0.257262
v -0.014191 -0.051264 0.285144
v -0.022164 -0.051264 0.320231
v -0.028708 -0.051264 0.375282
v -0.033571 -0.051264 0.441143
v -0.036565 -0.051264 0.514157
v -0.037576 -0.051264 0.621248
v -0.036565 -0.051264 0.646834
v -0.033571 -0.051264 0.682992
v -0.028708 -0.051264 0.724211
v -0.022164 -0.051264 0.757463
v -0.014191 -0.051264 0.794446
v -0.005094 -0.051264 0.831804
v 0.004777 -0.051264 0.872951
v 0.015043 -0.051264 0.902488
v 0.024609 0.089399 0.851387
v 0.015043 0.089399 0.878913
v 0.005476 0.089399 0.851387
v -0.003722 0.089399 0.813042
v -0.012200 0.089399 0.778228
v -0.019631 0.089399 0.743764
v -0.025729 0.089399 0.712776
v -0.030260 0.089399 0.674363
v -0.033051 0.089399 0.640668
v -0.033993 0.089399 0.616824
v -0.033051 0.089399 0.517026
v -0.030260 0.089399 0.448983
v -0.025729 0.089399 0.387607
v -0.019631 0.089399 0.336305
v -0.012200 0.089399 0.303607
v -0.003722 0.089399 0.277624
v 0.005476 0.089399 0.247227
v 0.015043 0.089399 0.223234
v 0.024609 0.089399 0.247227
v 0.033808 0.089399 0.277624
v 0.042285 0.089399 0.303607
v 0.049716 0.089399 0.336305
v 0.055814 0.089399 0.387607
v 0.060346 0.089399 0.448983
v 0.063136 0.089399 0.517025
v 0.064078 0.089399 0.616824
v 0.063136 0.089399 0.640668
v 0.060346 0.089399 0.674363
v 0.055814 0.089399 0.712776
v 0.049716 0.089399 0.743764
v 0.033808 -0.054259 0.813042
v 0.024609 -0.054259 0.851387
v 0.042285 -0.054259 0.778228
v 0.049716 -0.054259 0.743764
v 0.055814 -0.054259 0.712776
v 0.060346 -0.054259 0.674363
v 0.063136 -0.054259 0.640668
v 0.064078 -0.054259 0.616824
v 0.063136 -0.054259 0.517025
v 0.060346 -0.054259 0.448983
v 0.055814 -0.054259 0.387607
v 0.049716 -0.054259 0.336305
v 0.042285 -0.054259 0.303607
v 0.033808 -0.054259 0.277624
v 0.024609 -0.054259 0.247227
v 0.015043 -0.054259 0.223234
v 0.005476 -0.054259 0.247227
v -0.003722 -0.054259 0.277624
v -0.012200 -0.054259 0.303607
v -0.019631 -0.054259 0.336305
v -0.025729 -0.054259 0.387607
v -0.030260 -0.054259 0.448983
v -0.033051 -0.054259 0.517026
v -0.033993 -0.054259 0.616824
v -0.033051 -0.054259 0.640668
v -0.030260 -0.054259 0.674363
v -0.025729 -0.054259 0.712776
v -0.019631 -0.054259 0.743764
v -0.012200 -0.054259 0.778228
v -0.003722 -0.054259 0.813042
v 0.005476 -0.054259 0.851387
v 0.015043 -0.054259 0.878913
v 0.023221 0.094835 0.808569
v 0.015043 0.094835 0.832101
v 0.006864 0.094835 0.808569
v -0.001000 0.094835 0.775788
v -0.008247 0.094835 0.746025
v -0.014600 0.094835 0.716561
v -0.019813 0.094835 0.690070
v -0.023687 0.094835 0.657230
v -0.026073 0.094835 0.628424
v -0.026878 0.094835 0.608040
v -0.026073 0.094835 0.522721
v -0.023687 0.094835 0.464552
v -0.019813 0.094835 0.412081
v -0.014600 0.094835 0.368222
v -0.008247 0.094835 0.340269
v -0.001000 0.094835 0.318055
v 0.006864 0.094835 0.292069
v 0.015043 0.094835 0.271557
v 0.023221 0.094835 0.292069
v 0.031085 0.094835 0.318055
v 0.038333 0.094835 0.340269
v 0.044685 0.094835 0.368222
v 0.049899 0.094835 0.412080
v 0.053773 0.094835 0.464552
v 0.056158 0.094835 0.522721
v 0.056964 0.094835 0.608040
v 0.056158 0.094835 0.628424
v 0.053773 0.094835 0.657230
v 0.049899 0.094835 0.690070
v 0.044685 0.094835 0.716561
v 0.021955 0.099020 0.769498
v 0.015043 0.099020 0.789386
v 0.008131 0.099020 0.769498
v 0.001485 0.099020 0.741794
v -0.004640 0.099020 0.716640
v -0.010009 0.099020 0.691739
v -0.014415 0.099020 0.669351
v -0.017689 0.099020 0.641597
v -0.019705 0.099020 0.617252
v -0.020386 0.099020 0.600024
v -0.019705 0.099020 0.527919
v -0.017689 0.099020 0.478758
v -0.014415 0.099020 0.434412
v -0.010009 0.099020 0.397346
v -0.004640 0.099020 0.373722
v 0.001485 0.099020 0.354948
v 0.008131 0.099020 0.332987
v 0.015043 0.099020 0.315651
v 0.021955 0.099020 0.332987
v 0.028601 0.099020 0.354948
v 0.034726 0.099020 0.373722
v 0.040095 0.099020 0.397346
v 0.044501 0.099020 0.434412
v 0.047775 0.099020 0.478757
v 0.049791 0.099020 0.527919
v 0.050472 0.099020 0.600024
v 0.049791 0.099020 0.617252
v 0.047775 0.099020 0.641597
v 0.044501 0.099020 0.669350
v 0.040095 0.099020 0.691739
v 0.031085 -0.059695 0.775788
v 0.023221 -0.059695 0.808569
v 0.038333 -0.059695 0.746025
v 0.044685 -0.059695 0.716561
v 0.049899 -0.059695 0.690070
v 0.053773 -0.059695 0.657230
v 0.056158 -0.059695 0.628424
v 0.056964 -0.059695 0.608040
v 0.056158 -0.059695 0.522721
v 0.053773 -0.059695 0.464552
v 0.049899 -0.059695 0.412080
v 0.044685 -0.059695 0.368222
v 0.038333 -0.059695 0.340269
v 0.031085 -0.059695 0.318055
v 0.023221 -0.059695 0.292069
v 0.015043 -0.059695 0.271557
v 0.006864 -0.059695 0.292069
v -0.001000 -0.059695 0.318055
v -0.008247 -0.059695 0.340269
v -0.014600 -0.059695 0.368222
v -0.019813 -0.059695 0.412081
v -0.023687 -0.059695 0.464552
v -0.026073 -0.059695 0.522721
v -0.026878 -0.059695 0.608040
v -0.026073 -0.059695 0.628424
v -0.023687 -0.059695 0.657230
v -0.019813 -0.059695 0.690070
v -0.014600 -0.059695 0.716561
v -0.008247 -0.059695 0.746025
v -0.001000 -0.059695 0.775788
v 0.006864 -0.059695 0.808569
v 0.015043 -0.059695 0.832101
v 0.022393 0.097854 0.783012
v 0.015043 0.097854 0.804160
v 0.007693 0.097854 0.783012
v 0.000625 0.097854 0.753552
v -0.005888 0.097854 0.726804
v -0.011597 0.097854 0.700325
v -0.016282 0.097854 0.676517
v -0.019764 0.097854 0.647004
v -0.021908 0.097854 0.621116
v -0.022632 0.097854 0.602797
v -0.021908 0.097854 0.526121
v -0.019764 0.097854 0.473844
v -0.016282 0.097854 0.426688
v -0.011597 0.097854 0.387273
v -0.005888 0.097854 0.362151
v 0.000625 0.097854 0.342188
v 0.007693 0.097854 0.318834
v 0.015043 0.097854 0.300400
v 0.022393 0.097854 0.318834
v 0.029460 0.097854 0.342188
v 0.035973 0.097854 0.362151
v 0.041682 0.097854 0.387273
v 0.046368 0.097854 0.426688
v 0.049849 0.097854 0.473844
v 0.051993 0.097854 0.526121
v 0.052717 0.097854 0.602797
v 0.051993 0.097854 0.621116
v 0.049849 0.097854 0.647004
v 0.046368 0.097854 0.676517
v 0.041682 0.097854 0.700325
v 0.029460 -0.062714 0.753552
v 0.022393 -0.062714 0.783012
v 0.035973 -0.062714 0.726804
v 0.041682 -0.062714 0.700325
v 0.046368 -0.062714 0.676517
v 0.049849 -0.062714 0.647004
v 0.051993 -0.062714 0.621116
v 0.052717 -0.062714 0.602797
v 0.051993 -0.062714 0.526121
v 0.049849 -0.062714 0.473844
v 0.046368 -0.062714 0.426688
v 0.041682 -0.062714 0.387273
v 0.035973 -0.062714 0.362151
v 0.029460 -0.062714 0.342188
v 0.022393 -0.062714 0.318834
v 0.015043 -0.062714 0.300400
v 0.007693 -0.062714 0.318834
v 0.000625 -0.062714 0.342188
v -0.005888 -0.062714 0.362151
v -0.011597 -0.062714 0.387273
v -0.016282 -0.062714 0.426688
v -0.019764 -0.062714 0.473844
v -0.021908 -0.062714 0.526121
v -0.022632 -0.062714 0.602797
v -0.021908 -0.062714 0.621116
v -0.019764 -0.062714 0.647004
v -0.016282 -0.062714 0.676517
v -0.011597 -0.062714 0.700325
v -0.005888 -0.062714 0.726804
v 0.000625 -0.062714 0.753552
v 0.007693 -0.062714 0.783012
v 0.015043 -0.062714 0.804160
v 0.021955 -0.063880 0.769498
v 0.028601 -0.063880 0.741794
v 0.034726 -0.063880 0.716640
v 0.040095 -0.063880 0.691739
v 0.044501 -0.063880 0.669350
v 0.047775 -0.063880 0.641597
v 0.049791 -0.063880 0.617252
v 0.050472 -0.063880 0.600024
v 0.049791 -0.063880 0.527919
v 0.047775 -0.063880 0.478757
v 0.044501 -0.063880 0.434412
v 0.040095 -0.063880 0.397346
v 0.034726 -0.063880 0.373722
v 0.028601 -0.063880 0.354948
v 0.021955 -0.063880 0.332987
v 0.015043 -0.063880 0.315651
v 0.008131 -0.063880 0.332987
v 0.001485 -0.063880 0.354948
v -0.004640 -0.063880 0.373722
v -0.010009 -0.063880 0.397346
v -0.014415 -0.063880 0.434412
v -0.017689 -0.063880 0.478758
v -0.019705 -0.063880 0.527919
v -0.020386 -0.063880 0.600024
v -0.019705 -0.063880 0.617252
v -0.017689 -0.063880 0.641597
v -0.014415 -0.063880 0.669351
v -0.010009 -0.063880 0.691739
v -0.004640 -0.063880 0.716640
v 0.001485 -0.063880 0.741794
v 0.008131 -0.063880 0.769498
v 0.015043 -0.063880 0.789386
v 0.015233 -0.106185 0.570818
v 0.060039 -0.106185 0.566405
v -0.029572 -0.106185 0.566405
v 0.030341 -0.106184 -0.602714
v 0.030341 -0.106185 -0.017403
v 0.200120 -0.106185 -0.017403
v -0.002785 -0.106184 -0.602714
v -0.172565 -0.106185 -0.017403
v -0.002785 -0.106185 -0.017403
v 0.030341 -0.106184 -0.570252
v -0.002785 -0.106184 -0.570252
v 0.015233 -0.106185 0.570818
v 0.060039 -0.106185 0.566405
v -0.029572 -0.106185 0.566405
v 0.030341 -0.106184 -0.602714
v 0.030341 -0.106185 -0.017403
v -0.002785 -0.106185 -0.017403
vt 0.033446 0.033446
vt 0.966554 0.033446
vt 0.966554 0.966554
vt 0.033446 0.966554
vt 0.552553 0.286916
vt 0.558898 0.293686
vt 0.555456 0.309122
vt 0.566312 0.307793
vt 0.581900 0.302126
vt 0.626420 0.373963
vt 0.549358 0.335482
vt 0.528534 0.323735
vt 0.515878 0.320937
vt 0.563426 0.334584
vt 0.508621 0.310825
vt 0.499435 0.302181
vt 0.487389 0.294236
vt 0.474918 0.287309
vt 0.428363 0.259281
vt 0.466177 0.287855
vt 0.460612 0.284440
vt 0.438151 0.271517
vt 0.361199 0.230604
vt 0.447659 0.232900
vt 0.453154 0.249681
vt 0.459544 0.261099
vt 0.467763 0.251040
vt 0.478141 0.250666
vt 0.486385 0.246415
vt 0.493347 0.244125
vt 0.500340 0.240207
vt 0.507754 0.237582
vt 0.514991 0.234561
vt 0.520457 0.239239
vt 0.526128 0.243336
vt 0.531424 0.247830
vt 0.536953 0.251893
vt 0.539807 0.258749
vt 0.543076 0.265309
vt 0.545848 0.272066
vt 0.549064 0.278463
vt 0.456453 0.286879
vt 0.458280 0.286099
vt 0.528695 0.328810
vt 0.528180 0.327214
vt 0.214856 0.133999
vt 0.158837 0.086715
vt 0.118528 0.033543
vt 0.789543 0.442754
vt 0.860077 0.463356
vt 0.927052 0.467862
vt 0.509014 0.306660
vt 0.515224 0.310418
vt 0.521536 0.314011
vt 0.528118 0.317120
vt 0.535179 0.319262
vt 0.546696 0.318093
vt 0.460876 0.269690
vt 0.465204 0.273916
vt 0.469042 0.279004
vt 0.473855 0.283425
vt 0.479220 0.287502
vt 0.484905 0.291411
vt 0.490782 0.295246
vt 0.496784 0.299052
vt 0.502868 0.302857
vt 0.494916 0.301037
vt 0.487957 0.296759
vt 0.457246 0.286168
vt 0.458346 0.285556
vt 0.458586 0.283618
vt 0.440276 0.271197
vt 0.529341 0.329550
vt 0.528632 0.327103
vt 0.530296 0.325780
vt 0.550439 0.334501
vt 0.408937 0.282931
vt 0.220373 0.107721
vt 0.372878 0.198922
vt 0.033543 0.042538
vt 0.163162 0.066343
vt 0.560204 0.363727
vt 0.808492 0.423358
vt 0.647045 0.345959
vt 0.966457 0.543223
vt 0.874705 0.448363
vt 0.514284 0.298268
vt 0.508141 0.294408
vt 0.501958 0.290709
vt 0.495790 0.287170
vt 0.489717 0.283750
vt 0.483710 0.280573
vt 0.477812 0.277795
vt 0.472090 0.275703
vt 0.466696 0.274767
vt 0.461664 0.272768
vt 0.453763 0.277559
vt 0.453324 0.289938
vt 0.458443 0.296299
vt 0.459737 0.303241
vt 0.460937 0.310212
vt 0.462315 0.316908
vt 0.464201 0.323302
vt 0.466201 0.329322
vt 0.471192 0.331985
vt 0.476571 0.334463
vt 0.482195 0.336470
vt 0.487803 0.338422
vt 0.493868 0.338079
vt 0.500048 0.337676
vt 0.506213 0.336788
vt 0.512329 0.335912
vt 0.522647 0.330008
vt 0.530806 0.333065
vt 0.541116 0.325389
vt 0.540410 0.317113
vt 0.534604 0.314874
vt 0.530498 0.310931
vt 0.525592 0.306766
vt 0.520263 0.302337
vt 0.547715 0.338050
vt 0.438639 0.279103
vt 0.506120 0.336318
vt 0.512148 0.336323
vt 0.499993 0.337384
vt 0.493789 0.337622
vt 0.487670 0.339022
vt 0.482373 0.336088
vt 0.476643 0.334289
vt 0.471216 0.331705
vt 0.465067 0.330757
vt 0.464622 0.323403
vt 0.462556 0.316996
vt 0.461358 0.310314
vt 0.458909 0.304845
vt 0.458257 0.296527
vt 0.454153 0.288106
vt 0.448813 0.281264
vt 0.440360 0.281390
vt 0.433815 0.282481
vt 0.404491 0.221881
vt 0.442227 0.266748
vt 0.461965 0.286013
vt 0.554461 0.331383
vt 0.528597 0.327453
vt 0.610236 0.330666
vt 0.546616 0.344012
vt 0.544656 0.337948
vt 0.540563 0.331544
vt 0.531268 0.332904
vt 0.461287 0.285878
vt 0.532356 0.333178
vt 0.481906 0.298443
vt 0.489404 0.299885
vt 0.490806 0.300287
vt 0.491387 0.304253
vt 0.107850 0.543416
vt 0.125922 0.543416
vt 0.136649 0.693373
vt 0.107850 0.693373
vt 0.165641 0.693373
vt 0.136842 0.693373
vt 0.147569 0.543416
vt 0.165641 0.543416
vt 0.500000 0.966554
vt 0.591020 0.957589
vt 0.678542 0.931040
vt 0.759203 0.887925
vt 0.829903 0.829903
vt 0.887925 0.759203
vt 0.931039 0.678542
vt 0.957589 0.591020
vt 0.966554 0.500000
vt 0.957589 0.408980
vt 0.931040 0.321458
vt 0.887925 0.240797
vt 0.829903 0.170097
vt 0.759203 0.112075
vt 0.678542 0.068961
vt 0.591020 0.042411
vt 0.500000 0.033446
vt 0.408980 0.042411
vt 0.321457 0.068961
vt 0.240796 0.112075
vt 0.170096 0.170097
vt 0.112075 0.240797
vt 0.068960 0.321458
vt 0.042411 0.408980
vt 0.033446 0.500000
vt 0.042411 0.591021
vt 0.068961 0.678543
vt 0.112075 0.759204
vt 0.170097 0.829904
vt 0.240797 0.887926
vt 0.321458 0.931040
vt 0.408981 0.957589
vt 0.522103 0.331799
vt 0.450013 0.254641
vt 0.486774 0.273111
vt 0.517610 0.284832
vt 0.557134 0.306352
vt 0.470277 0.288893
vt 0.499917 0.306352
vt 0.491760 0.306771
vt 0.488886 0.299676
vt 0.480909 0.299615
vt 0.064185 0.661743
vt 0.033700 0.615925
vt 0.033543 0.576142
vt 0.068359 0.573142
vt 0.070508 0.543416
vt 0.070508 0.681775
vt 0.072841 0.573144
vt 0.107657 0.576144
vt 0.107500 0.615927
vt 0.077020 0.661740
vt 0.070701 0.681773
vt 0.070700 0.543416
vn 0.000000 -1.000000 -0.000000
vn 0.000000 0.998500 -0.055000
vn 0.024600 -0.999700 0.003200
vn 0.024600 0.999700 -0.003200
vn 0.000600 1.000000 -0.006200
vn -0.002500 1.000000 -0.003200
vn 0.000600 -1.000000 0.006200
vn -0.002500 -1.000000 0.003200
vn -0.000000 0.999200 0.039400
vn -0.645200 0.747700 -0.157100
vn -0.007000 0.999400 -0.034900
vn 0.007000 0.999400 -0.034900
vn 0.000000 1.000000 0.000000
vn 0.044100 0.999000 0.005700
vn 0.044100 -0.999000 -0.005700
vn -0.007900 -0.999900 -0.008600
vn -0.005700 -1.000000 -0.007400
vn -0.007900 0.999900 0.008600
vn -0.005700 1.000000 0.007400
vn -0.002700 -0.999800 0.020100
vn 0.983400 -0.177500 -0.038900
vn -0.985800 -0.167700 0.009300
vn -0.881900 0.000000 -0.471400
vn 0.952600 0.000000 0.304200
vn -0.992900 0.000000 -0.118800
vn 0.980400 -0.183100 0.072400
vn -0.972600 -0.202200 -0.114700
vn -0.471400 0.000000 -0.881900
vn 0.500100 0.000000 -0.866000
vn -0.161800 0.000000 -0.986800
vn 0.098000 0.000000 -0.995200
vn 0.892800 -0.343700 0.291300
vn -0.936300 -0.267100 -0.228000
vn 1.000000 0.000000 0.000000
vn -0.878700 0.000000 0.477400
vn 0.885400 -0.348400 -0.307700
vn 0.634400 0.000000 -0.773000
vn -0.852400 -0.397300 0.339900
vn -0.215300 0.000000 -0.976500
vn 0.000000 0.000000 -1.000000
vn 0.946600 -0.249500 -0.204100
vn 0.984300 0.000000 -0.176700
vn -0.936600 -0.278300 0.212800
vn 0.322000 0.000000 -0.946800
vn 0.978600 -0.189200 -0.081000
vn -0.984300 -0.171700 0.040400
vn -0.984300 0.000000 -0.176700
vn -0.215300 0.000000 0.976500
vn -0.997600 0.000000 0.069700
vn 0.984300 -0.171700 0.040400
vn -0.978600 -0.189200 -0.081000
vn -0.634400 0.000000 -0.773000
vn 0.165800 0.000000 -0.986200
vn 0.936600 -0.278300 0.212900
vn -0.946600 -0.249500 -0.204100
vn -0.098000 0.000000 -0.995200
vn 0.998400 0.000000 -0.056900
vn 0.471400 0.000000 -0.881900
vn 0.852400 -0.397300 0.339900
vn -0.885400 -0.348400 -0.307700
vn 0.000000 0.000000 1.000000
vn 0.322000 0.000000 0.946800
vn 0.936300 -0.267100 -0.228000
vn 0.881900 0.000000 -0.471400
vn -0.892800 -0.343700 0.291300
vn -0.776500 0.000000 0.630100
vn 0.972600 -0.202200 -0.114700
vn -0.980400 -0.183100 0.072400
vn -0.998400 0.000000 -0.056900
vn 0.997500 0.000000 0.071300
vn 0.985800 -0.167700 0.009300
vn -0.983400 -0.177500 -0.038900
vn -0.773000 0.000000 -0.634400
vn 0.992800 0.000000 -0.119600
vn 0.971400 -0.207300 0.115500
vn -0.952700 -0.239300 -0.187500
vn -0.290300 0.000000 -0.956900
vn 0.290300 0.000000 -0.956900
vn 0.904400 -0.327200 0.273700
vn -0.937800 -0.264500 -0.225000
vn -1.000000 0.000000 0.000000
vn -0.776500 0.000000 -0.630100
vn 0.937800 -0.264500 -0.225000
vn 0.773000 0.000000 -0.634400
vn -0.904400 -0.327200 0.273700
vn 0.952600 0.000000 -0.304200
vn -0.878700 0.000000 -0.477400
vn 0.952700 -0.239300 -0.187500
vn -0.971400 -0.207400 0.115500
vn 0.500100 0.000000 0.866000
vn -0.881900 0.000000 0.471400
vn -0.773000 0.000000 0.634400
vn -0.634400 0.000000 0.773000
vn -0.471400 0.000000 0.881900
vn -0.290300 0.000000 0.956900
vn -0.098000 0.000000 0.995200
vn 0.098000 0.000000 0.995200
vn 0.290300 0.000000 0.956900
vn 0.471400 0.000000 0.881900
vn 0.634400 0.000000 0.773000
vn 0.773000 0.000000 0.634400
vn 0.881900 0.000000 0.471400
vn 0.982200 0.000000 0.187900
vn 0.998600 0.000000 0.052800
vn -0.165800 0.000000 0.986200
vn 0.161800 0.000000 0.986800
vn -0.930500 0.000000 0.366300
vn 0.920500 0.000000 0.390800
vn -0.999900 0.000000 -0.013000
vn 0.999900 0.000000 -0.013000
vn -0.098000 0.995200 -0.000000
vn -0.290300 0.956900 -0.000000
vn -0.471400 0.881900 -0.000000
vn -0.634400 0.773000 -0.000000
vn -0.773000 0.634400 -0.000000
vn -0.881900 0.471400 -0.000000
vn -0.956900 0.290300 -0.000000
vn -0.995200 0.098000 -0.000000
vn -0.995200 -0.098000 0.000000
vn -0.956900 -0.290300 0.000000
vn -0.881900 -0.471400 0.000000
vn -0.773000 -0.634400 0.000000
vn -0.634400 -0.773000 0.000000
vn -0.471400 -0.881900 0.000000
vn -0.290300 -0.956900 0.000000
vn -0.098000 -0.995200 0.000000
vn 0.098000 -0.995200 0.000000
vn 0.290300 -0.956900 0.000000
vn 0.471400 -0.881900 0.000000
vn 0.634400 -0.773000 0.000000
vn 0.773000 -0.634400 0.000000
vn 0.881900 -0.471400 0.000000
vn 0.956900 -0.290300 0.000000
vn 0.995200 -0.098000 0.000000
vn 0.995200 0.098000 -0.000000
vn 0.956900 0.290300 -0.000000
vn 0.881900 0.471400 -0.000000
vn 0.773000 0.634400 -0.000000
vn 0.634400 0.773000 -0.000000
vn 0.471400 0.881900 -0.000000
vn 0.000000 -0.000100 -1.000000
vn 0.098000 0.995200 -0.000000
vn 0.290300 0.956900 -0.000000
vn -0.000000 0.000100 1.000000
vn -0.000000 -0.999800 -0.022200
vn 0.999800 0.000000 -0.020900
vn -0.088300 -0.893000 -0.441300
vn 0.088600 -0.892300 -0.442700
vn -0.998600 0.041300 -0.034000
vn 0.998600 0.040400 -0.033200
vn 0.983800 0.175200 -0.038900
vn -0.986200 0.165500 0.009300
vn 0.980900 0.180800 0.072400
vn -0.973100 0.199600 -0.114800
vn 0.894200 0.339600 0.291700
vn -0.937200 0.263800 -0.228200
vn 0.886800 0.344400 -0.308200
vn -0.854200 0.392800 0.340600
vn 0.947400 0.246400 -0.204300
vn -0.937600 0.274900 0.213100
vn 0.979100 0.186800 -0.081100
vn -0.984700 0.169500 0.040400
vn 0.984700 0.169500 0.040400
vn -0.979100 0.186800 -0.081100
vn 0.937600 0.274900 0.213100
vn -0.947400 0.246400 -0.204300
vn 0.854200 0.392800 0.340600
vn -0.886800 0.344400 -0.308200
vn 0.937200 0.263800 -0.228200
vn -0.894200 0.339600 0.291700
vn 0.973100 0.199600 -0.114800
vn -0.980800 0.180800 0.072400
vn 0.986200 0.165500 0.009300
vn -0.983800 0.175200 -0.038900
vn 0.972000 0.204700 0.115500
vn -0.953400 0.236300 -0.187600
vn 0.905700 0.323400 0.274100
vn -0.938600 0.261200 -0.225200
vn 0.938600 0.261200 -0.225200
vn -0.905700 0.323400 0.274100
vn 0.953400 0.236300 -0.187600
vn -0.972000 0.204700 0.115500
vn -0.806800 0.557200 -0.196500
vn -0.829400 0.529200 -0.178800
vn -0.842600 0.512300 -0.165800
vn -0.888300 0.447000 -0.104800
vn -0.903200 0.422700 -0.074800
vn -0.915800 0.400100 -0.036200
vn -0.924700 0.380700 0.008700
vn -0.920600 0.388700 0.037800
vn -0.909100 0.411100 0.067100
vn -0.883500 0.456500 0.105000
vn -0.798300 0.574300 0.181400
vn -0.711600 0.663100 0.232200
vn -0.733500 0.642400 0.222000
vn -0.641300 0.723500 0.255700
vn 0.641300 0.723500 0.255700
vn 0.733500 0.642400 0.222000
vn 0.711600 0.663100 0.232200
vn 0.798300 0.574300 0.181400
vn 0.883500 0.456500 0.105000
vn 0.909100 0.411100 0.067100
vn 0.920600 0.388700 0.037800
vn 0.924600 0.380700 0.008700
vn 0.915700 0.400100 -0.036200
vn 0.903200 0.422700 -0.074800
vn 0.888300 0.447100 -0.104800
vn 0.842600 0.512300 -0.165800
vn 0.829500 0.529200 -0.178800
vn 0.806800 0.557200 -0.196500
vn 0.810100 0.553100 -0.194300
vn 0.702100 0.668900 -0.244000
vn -0.702100 0.668900 -0.244000
vn -0.810100 0.553100 -0.194300
vn -0.817300 -0.541900 -0.196100
vn -0.711300 -0.658000 -0.247200
vn 0.711300 -0.658000 -0.247200
vn 0.817300 -0.541900 -0.196100
vn 0.814000 -0.546000 -0.198200
vn 0.836100 -0.518000 -0.180300
vn 0.849000 -0.501300 -0.167100
vn 0.893400 -0.436600 -0.105400
vn 0.907800 -0.412600 -0.075200
vn 0.919900 -0.390400 -0.036400
vn 0.928500 -0.371300 0.008800
vn 0.924600 -0.379200 0.037900
vn 0.913500 -0.401200 0.067400
vn 0.888800 -0.446000 0.105600
vn 0.805900 -0.563000 0.183200
vn 0.720700 -0.652200 0.235100
vn 0.742300 -0.631400 0.224600
vn 0.651000 -0.713300 0.259600
vn -0.651000 -0.713300 0.259600
vn -0.742300 -0.631400 0.224600
vn -0.720700 -0.652200 0.235100
vn -0.805900 -0.563000 0.183200
vn -0.888800 -0.446000 0.105600
vn -0.913500 -0.401200 0.067400
vn -0.924600 -0.379100 0.037900
vn -0.928500 -0.371200 0.008800
vn -0.920000 -0.390300 -0.036400
vn -0.907800 -0.412600 -0.075200
vn -0.893400 -0.436600 -0.105400
vn -0.849000 -0.501300 -0.167100
vn -0.836100 -0.518100 -0.180300
vn -0.814000 -0.546000 -0.198200
vn -0.675300 0.723000 -0.145600
vn -0.693400 0.707500 -0.136500
vn -0.761000 0.642500 -0.089800
vn -0.784800 0.616300 -0.065000
vn -0.806000 0.591000 -0.031900
vn -0.822700 0.568400 0.007800
vn -0.815500 0.577800 0.033400
vn -0.795300 0.603400 0.058700
vn -0.752500 0.652500 0.089500
vn -0.631400 0.762100 0.143500
vn -0.530700 0.829700 0.173100
vn -0.554600 0.815000 0.167800
vn -0.459200 0.869300 0.183100
vn 0.459200 0.869300 0.183100
vn 0.554600 0.815000 0.167800
vn 0.530600 0.829700 0.173100
vn 0.631400 0.762100 0.143500
vn 0.752500 0.652500 0.089500
vn 0.795300 0.603400 0.058700
vn 0.815500 0.577800 0.033400
vn 0.822700 0.568400 0.007800
vn 0.806100 0.590900 -0.031900
vn 0.784900 0.616300 -0.065000
vn 0.761000 0.642600 -0.089800
vn 0.693400 0.707500 -0.136500
vn 0.675300 0.723000 -0.145600
vn 0.645200 0.747700 -0.157100
vn 0.649600 0.744200 -0.155800
vn 0.521600 0.833700 -0.181300
vn -0.521600 0.833700 -0.181300
vn -0.649600 0.744200 -0.155800
vn -0.649600 -0.744200 -0.155800
vn -0.521600 -0.833700 -0.181300
vn 0.521600 -0.833700 -0.181300
vn 0.649600 -0.744200 -0.155800
vn 0.645200 -0.747700 -0.157100
vn 0.675300 -0.723000 -0.145600
vn 0.693400 -0.707500 -0.136500
vn 0.761000 -0.642600 -0.089800
vn 0.784900 -0.616300 -0.065000
vn 0.806100 -0.590900 -0.031900
vn 0.822700 -0.568400 0.007800
vn 0.815500 -0.577800 0.033400
vn 0.795300 -0.603400 0.058700
vn 0.752500 -0.652500 0.089400
vn 0.631400 -0.762100 0.143500
vn 0.530600 -0.829700 0.173100
vn 0.554600 -0.815000 0.167800
vn 0.459200 -0.869300 0.183100
vn -0.459200 -0.869300 0.183100
vn -0.554600 -0.815000 0.167800
vn -0.530700 -0.829700 0.173100
vn -0.631400 -0.762100 0.143500
vn -0.752500 -0.652500 0.089500
vn -0.795300 -0.603400 0.058700
vn -0.815500 -0.577800 0.033400
vn -0.822700 -0.568400 0.007800
vn -0.806000 -0.591000 -0.031900
vn -0.784800 -0.616300 -0.065000
vn -0.761000 -0.642500 -0.089800
vn -0.693400 -0.707500 -0.136500
vn -0.675300 -0.723000 -0.145600
vn -0.645200 -0.747700 -0.157100
vn -0.447500 -0.887600 -0.109000
vn -0.392300 -0.914900 -0.095500
vn -0.416400 -0.903500 -0.101400
vn -0.369600 -0.924800 -0.090000
vn -0.373300 -0.923400 -0.089500
vn -0.277000 -0.956000 -0.096300
vn 0.277000 -0.956000 -0.096300
vn 0.373300 -0.923400 -0.089600
vn 0.369600 -0.924800 -0.090000
vn 0.395600 -0.914400 -0.085300
vn 0.412000 -0.907600 -0.081100
vn 0.480100 -0.875400 -0.056600
vn 0.507600 -0.860600 -0.042000
vn 0.533900 -0.845300 -0.021100
vn 0.556800 -0.830600 0.005300
vn 0.547000 -0.836800 0.022400
vn 0.520600 -0.852900 0.038400
vn 0.470400 -0.880700 0.055900
vn 0.357100 -0.930500 0.081100
vn 0.282800 -0.954700 0.092300
vn 0.299300 -0.949800 0.090600
vn 0.236600 -0.967000 0.094300
vn -0.236600 -0.967000 0.094300
vn -0.299300 -0.949800 0.090600
vn -0.282800 -0.954700 0.092300
vn -0.357100 -0.930600 0.081100
vn -0.470400 -0.880700 0.055900
vn -0.520600 -0.852900 0.038400
vn -0.547000 -0.836800 0.022400
vn -0.556800 -0.830600 0.005300
vn -0.533900 -0.845300 -0.021100
vn -0.507600 -0.860600 -0.042000
vn -0.480100 -0.875400 -0.056600
vn -0.412000 -0.907600 -0.081100
vn -0.395600 -0.914500 -0.085300
vn -0.298200 -0.951800 -0.072600
vn -0.373300 0.923400 -0.089500
vn -0.369600 0.924800 -0.090000
vn -0.395600 0.914500 -0.085300
vn -0.412000 0.907600 -0.081100
vn -0.480100 0.875400 -0.056600
vn -0.507600 0.860600 -0.042000
vn -0.533900 0.845300 -0.021100
vn -0.556800 0.830600 0.005300
vn -0.547000 0.836800 0.022400
vn -0.520600 0.852900 0.038400
vn -0.470400 0.880700 0.055900
vn -0.357100 0.930600 0.081100
vn -0.282800 0.954700 0.092300
vn -0.299300 0.949800 0.090600
vn -0.236600 0.967000 0.094300
vn 0.236600 0.967000 0.094300
vn 0.299300 0.949800 0.090600
vn 0.282800 0.954700 0.092300
vn 0.357100 0.930500 0.081100
vn 0.470400 0.880700 0.055900
vn 0.520600 0.852900 0.038400
vn 0.547000 0.836800 0.022400
vn 0.556800 0.830600 0.005300
vn 0.533900 0.845300 -0.021100
vn 0.507600 0.860600 -0.042000
vn 0.480100 0.875400 -0.056600
vn 0.412000 0.907600 -0.081100
vn 0.395600 0.914400 -0.085300
vn 0.369600 0.924800 -0.090000
vn 0.373300 0.923400 -0.089600
vn 0.277000 0.956000 -0.096300
vn -0.277000 0.956000 -0.096300
vn -0.451700 -0.885600 -0.108400
vn -0.340900 -0.932600 -0.118500
vn 0.340900 -0.932600 -0.118500
vn 0.451700 -0.885600 -0.108300
vn 0.447500 -0.887600 -0.109000
vn 0.476600 -0.873100 -0.102700
vn 0.494600 -0.863600 -0.097300
vn 0.567700 -0.820500 -0.067000
vn 0.596200 -0.801300 -0.049400
vn 0.623100 -0.781800 -0.024600
vn 0.645800 -0.763500 0.006100
vn 0.636000 -0.771300 0.026100
vn 0.609500 -0.791500 0.045000
vn 0.557700 -0.827400 0.066300
vn 0.433600 -0.895700 0.098500
vn 0.347800 -0.930700 0.113500
vn 0.367200 -0.923500 0.111100
vn 0.292900 -0.949000 0.116800
vn -0.292900 -0.949000 0.116800
vn -0.367200 -0.923500 0.111100
vn -0.347800 -0.930700 0.113500
vn -0.433600 -0.895700 0.098500
vn -0.557600 -0.827500 0.066300
vn -0.609500 -0.791500 0.045000
vn -0.636000 -0.771200 0.026100
vn -0.645700 -0.763600 0.006100
vn -0.623000 -0.781800 -0.024600
vn -0.596300 -0.801300 -0.049400
vn -0.567700 -0.820500 -0.067000
vn -0.494600 -0.863700 -0.097300
vn -0.476500 -0.873100 -0.102700
vn -0.451700 0.885600 -0.108400
vn -0.447500 0.887600 -0.109000
vn -0.476500 0.873100 -0.102700
vn -0.494600 0.863700 -0.097300
vn -0.567700 0.820500 -0.067000
vn -0.596300 0.801300 -0.049400
vn -0.623000 0.781800 -0.024600
vn -0.645700 0.763600 0.006100
vn -0.636000 0.771200 0.026100
vn -0.609500 0.791500 0.045000
vn -0.557600 0.827500 0.066300
vn -0.433600 0.895700 0.098500
vn -0.347800 0.930700 0.113500
vn -0.367200 0.923500 0.111100
vn -0.292900 0.949000 0.116800
vn 0.292900 0.949000 0.116800
vn 0.367200 0.923500 0.111100
vn 0.347800 0.930700 0.113500
vn 0.433600 0.895700 0.098500
vn 0.557700 0.827400 0.066300
vn 0.609500 0.791500 0.045000
vn 0.636000 0.771300 0.026100
vn 0.645800 0.763500 0.006100
vn 0.623100 0.781800 -0.024600
vn 0.596200 0.801300 -0.049400
vn 0.567700 0.820500 -0.067000
vn 0.494600 0.863600 -0.097300
vn 0.476600 0.873100 -0.102700
vn 0.447500 0.887600 -0.109000
vn 0.451700 0.885600 -0.108300
vn 0.340900 0.932600 -0.118500
vn -0.340900 0.932600 -0.118500
vn -0.420400 -0.901700 -0.100900
vn -0.315000 -0.942800 -0.109500
vn 0.315000 -0.942800 -0.109500
vn 0.420400 -0.901700 -0.100900
vn 0.416400 -0.903500 -0.101400
vn 0.444400 -0.890700 -0.095800
vn 0.461900 -0.882300 -0.090900
vn 0.533500 -0.843500 -0.062900
vn 0.561800 -0.826000 -0.046500
vn 0.588700 -0.808000 -0.023300
vn 0.611600 -0.791100 0.005800
vn 0.601700 -0.798300 0.024700
vn 0.575100 -0.817000 0.042500
vn 0.523500 -0.849800 0.062200
vn 0.402900 -0.910600 0.091600
vn 0.321500 -0.941100 0.104900
vn 0.339800 -0.934900 0.102800
vn 0.269900 -0.956800 0.107600
vn -0.270000 -0.956800 0.107600
vn -0.339700 -0.934900 0.102800
vn -0.321500 -0.941100 0.104900
vn -0.403000 -0.910600 0.091600
vn -0.523500 -0.849800 0.062200
vn -0.575100 -0.817000 0.042500
vn -0.601800 -0.798300 0.024700
vn -0.611600 -0.791100 0.005800
vn -0.588700 -0.808000 -0.023300
vn -0.561800 -0.826000 -0.046500
vn -0.533500 -0.843400 -0.062900
vn -0.461900 -0.882300 -0.090900
vn -0.444400 -0.890700 -0.095800
vn -0.420400 0.901700 -0.100900
vn -0.416400 0.903500 -0.101400
vn -0.444400 0.890700 -0.095800
vn -0.461900 0.882300 -0.090900
vn -0.533500 0.843400 -0.062900
vn -0.561800 0.826000 -0.046500
vn -0.588700 0.808000 -0.023300
vn -0.611600 0.791100 0.005800
vn -0.601800 0.798300 0.024700
vn -0.575100 0.817000 0.042500
vn -0.523500 0.849800 0.062200
vn -0.403000 0.910600 0.091600
vn -0.321500 0.941100 0.104900
vn -0.339700 0.934900 0.102800
vn -0.270000 0.956800 0.107600
vn 0.269900 0.956800 0.107600
vn 0.339800 0.934900 0.102800
vn 0.321500 0.941100 0.104900
vn 0.402900 0.910600 0.091600
vn 0.523500 0.849800 0.062200
vn 0.575100 0.817000 0.042500
vn 0.601700 0.798300 0.024700
vn 0.611600 0.791100 0.005800
vn 0.588700 0.808000 -0.023300
vn 0.561800 0.826000 -0.046500
vn 0.533500 0.843500 -0.062900
vn 0.461900 0.882300 -0.090900
vn 0.444400 0.890700 -0.095800
vn 0.416400 0.903500 -0.101400
vn 0.420400 0.901700 -0.100900
vn 0.315000 0.942800 -0.109500
vn -0.315000 0.942800 -0.109500
vn -0.396200 -0.913200 -0.095000
vn -0.295300 -0.949900 -0.102600
vn 0.295300 -0.949900 -0.102600
vn 0.396100 -0.913300 -0.095000
vn 0.392400 -0.914800 -0.095500
vn 0.419300 -0.903300 -0.090400
vn 0.436300 -0.895700 -0.085900
vn 0.506300 -0.860300 -0.059700
vn 0.534300 -0.844200 -0.044300
vn 0.561000 -0.827500 -0.022200
vn 0.584000 -0.811800 0.005500
vn 0.574100 -0.818500 0.023500
vn 0.547500 -0.835900 0.040400
vn 0.496400 -0.866100 0.059000
vn 0.379300 -0.921200 0.086200
vn 0.301500 -0.948400 0.098300
vn 0.318800 -0.942900 0.096500
vn 0.252600 -0.962300 0.100700
vn -0.252600 -0.962300 0.100700
vn -0.318800 -0.942900 0.096500
vn -0.301400 -0.948400 0.098300
vn -0.379300 -0.921200 0.086200
vn -0.496400 -0.866100 0.059000
vn -0.547400 -0.835900 0.040400
vn -0.574000 -0.818500 0.023500
vn -0.583900 -0.811800 0.005500
vn -0.560900 -0.827600 -0.022200
vn -0.534200 -0.844200 -0.044200
vn -0.506300 -0.860300 -0.059700
vn -0.436300 -0.895700 -0.085900
vn -0.419300 -0.903300 -0.090400
vn -0.396200 0.913200 -0.095000
vn -0.392300 0.914900 -0.095500
vn -0.419300 0.903300 -0.090400
vn -0.436300 0.895700 -0.085900
vn -0.506300 0.860300 -0.059700
vn -0.534200 0.844200 -0.044200
vn -0.560900 0.827600 -0.022200
vn -0.583900 0.811800 0.005500
vn -0.574000 0.818500 0.023500
vn -0.547400 0.835900 0.040400
vn -0.496400 0.866100 0.059000
vn -0.379300 0.921200 0.086200
vn -0.301400 0.948400 0.098300
vn -0.318800 0.942900 0.096500
vn -0.252600 0.962300 0.100700
vn 0.252600 0.962300 0.100700
vn 0.318800 0.942900 0.096500
vn 0.301500 0.948400 0.098300
vn 0.379300 0.921200 0.086200
vn 0.496400 0.866100 0.059000
vn 0.547500 0.835900 0.040400
vn 0.574100 0.818500 0.023500
vn 0.584000 0.811800 0.005500
vn 0.561000 0.827500 -0.022200
vn 0.534300 0.844200 -0.044200
vn 0.506300 0.860300 -0.059700
vn 0.436300 0.895700 -0.085900
vn 0.419300 0.903300 -0.090400
vn 0.392400 0.914800 -0.095500
vn 0.396100 0.913300 -0.095000
vn 0.295300 0.949900 -0.102600
vn -0.295300 0.949900 -0.102600
vn -0.301300 -0.950800 -0.072300
vn -0.220800 -0.972300 -0.076700
vn 0.220800 -0.972300 -0.076700
vn 0.301200 -0.950800 -0.072300
vn 0.298100 -0.951800 -0.072600
vn 0.320300 -0.944800 -0.069100
vn 0.334500 -0.940100 -0.065800
vn 0.394500 -0.917700 -0.046500
vn 0.419300 -0.907200 -0.034700
vn 0.443500 -0.896100 -0.017500
vn 0.465000 -0.885300 0.004400
vn 0.455800 -0.889900 0.018700
vn 0.431300 -0.901600 0.031800
vn 0.385800 -0.921500 0.045900
vn 0.287400 -0.955600 0.065300
vn 0.225500 -0.971500 0.073600
vn 0.239100 -0.968300 0.072400
vn 0.187800 -0.979400 0.074900
vn -0.187800 -0.979400 0.074900
vn -0.239200 -0.968300 0.072400
vn -0.225500 -0.971400 0.073600
vn -0.287400 -0.955600 0.065300
vn -0.385800 -0.921400 0.045900
vn -0.431400 -0.901600 0.031800
vn -0.455900 -0.889800 0.018700
vn -0.465200 -0.885200 0.004400
vn -0.443700 -0.896000 -0.017500
vn -0.419400 -0.907100 -0.034700
vn -0.394500 -0.917700 -0.046500
vn -0.334500 -0.940100 -0.065800
vn -0.320400 -0.944800 -0.069100
vn -0.301300 0.950800 -0.072300
vn -0.298200 0.951800 -0.072600
vn -0.320400 0.944800 -0.069100
vn -0.334500 0.940100 -0.065800
vn -0.394500 0.917700 -0.046500
vn -0.419400 0.907100 -0.034700
vn -0.443700 0.896000 -0.017500
vn -0.465200 0.885200 0.004400
vn -0.455900 0.889800 0.018700
vn -0.431400 0.901600 0.031800
vn -0.385800 0.921400 0.045900
vn -0.287400 0.955600 0.065300
vn -0.225500 0.971400 0.073600
vn -0.239200 0.968300 0.072400
vn -0.187800 0.979400 0.074900
vn 0.187800 0.979400 0.074900
vn 0.239100 0.968300 0.072400
vn 0.225500 0.971500 0.073600
vn 0.287400 0.955600 0.065300
vn 0.385800 0.921500 0.045900
vn 0.431300 0.901600 0.031800
vn 0.455800 0.889900 0.018700
vn 0.465000 0.885300 0.004400
vn 0.443500 0.896100 -0.017500
vn 0.419300 0.907200 -0.034700
vn 0.394500 0.917700 -0.046500
vn 0.334500 0.940100 -0.065800
vn 0.320300 0.944800 -0.069100
vn 0.298100 0.951800 -0.072600
vn 0.301200 0.950800 -0.072300
vn 0.220800 0.972300 -0.076700
vn -0.220800 0.972300 -0.076700
usemtl metal
s off
f 1/1/1 2/2/1 3/3/1 4/4/1
f 5/5/2 6/6/2 7/7/2 8/8/2 9/9/2 10/10/2 11/11/2 12/12/2 13/13/2 14/14/2 15/15/2 16/16/2 17/17/2 18/18/2 19/19/2 20/20/2 21/21/2 22/22/2 23/23/2 24/24/2 25/25/2 26/26/2 27/27/2 28/28/2 29/29/2 30/30/2 31/31/2 32/32/2 33/33/2 34/34/2 35/35/2 36/36/2 37/37/2 38/38/2 39/39/2 40/40/2 41/41/2
f 21/21/3 22/22/3 42/42/3 43/43/3
f 12/12/4 11/11/4 44/44/4 45/45/4
f 24/24/5 23/23/5 46/46/5
f 46/46/6 47/47/6 48/48/6 24/24/6
f 9/9/7 10/10/7 49/49/7
f 49/49/8 50/50/8 51/51/8 9/9/8
f 52/52/9 53/53/9 54/54/9 55/55/9 56/56/9 57/57/9 7/7/9 6/6/9 5/5/9 41/41/9 40/40/9 39/39/9 38/38/9 37/37/9 36/36/9 35/35/9 34/34/9 33/33/9 32/32/9 31/31/9 30/30/9 29/29/9 28/28/9 27/27/9 26/26/9 58/58/9 59/59/9 60/60/9 61/61/9 62/62/9 63/63/9 64/64/9 65/65/9 66/66/9
f 67/1/10 68/2/10 69/3/10 70/4/10
f 16/16/11 15/15/11 14/14/11 13/13/11 71/67/11
f 19/19/12 18/18/12 17/17/12 72/68/12 20/20/12
f 73/1/13 74/2/13 75/3/13 76/4/13
f 77/69/14 78/70/14 79/71/14 80/72/14
f 81/73/15 82/74/15 83/75/15 84/76/15
f 85/77/16 86/78/16 87/79/16
f 86/78/17 85/77/17 88/80/17 89/81/17
f 90/82/18 91/83/18 92/84/18
f 91/83/19 90/82/19 93/85/19 94/86/19
f 95/87/20 96/88/20 97/89/20 98/90/20 99/91/20 100/92/20 101/93/20 102/94/20 103/95/20 104/96/20 105/97/20 106/98/20 107/99/20 108/100/20 109/101/20 110/102/20 111/103/20 112/104/20 113/105/20 114/106/20 115/107/20 116/108/20 117/109/20 118/110/20 119/111/20 120/112/20 121/113/20 122/114/20 123/115/20 124/116/20 125/117/20 126/118/20 127/119/20 128/120/20
f 129/1/21 130/2/21 131/3/21 132/4/21
f 133/1/22 134/2/22 135/3/22 136/4/22
f 56/56/23 55/55/23 126/118/23 125/117/23
f 48/48/24 47/47/24 89/81/24 88/80/24
f 9/9/25 8/8/25 137/121/25 90/82/25
f 138/1/26 139/2/26 140/3/26 141/4/26
f 142/1/27 143/2/27 144/3/27 145/4/27
f 53/53/28 52/52/28 95/87/28 128/120/28
f 24/24/29 48/48/29 88/80/29 85/77/29
f 8/8/30 7/7/30 123/115/30 137/121/30
f 65/65/31 64/64/31 98/90/31 97/89/31
f 146/1/32 147/2/32 148/3/32 149/4/32
f 150/1/33 151/2/33 152/3/33 153/4/33
f 2/1/34 1/2/34 73/3/34 76/4/34
f 45/45/35 44/44/35 83/75/35 82/74/35
f 154/1/36 155/2/36 156/3/36 157/4/36
f 62/62/37 61/61/37 101/93/37 100/92/37
f 158/1/38 159/2/38 160/3/38 161/4/38
f 50/50/39 49/49/39 91/83/39 94/86/39
f 1/1/40 4/2/40 74/3/40 73/4/40
f 162/1/41 163/2/41 164/3/41 165/4/41
f 59/59/42 58/58/42 104/96/42 103/95/42
f 166/1/43 167/2/43 168/3/43 169/4/43
f 21/21/44 43/43/44 78/70/44 77/69/44
f 170/1/45 129/2/45 132/3/45 171/4/45
f 172/1/46 133/2/46 136/3/46 173/4/46
f 57/57/47 56/56/47 125/117/47 124/116/47
f 47/47/48 46/46/48 86/78/48 89/81/48
f 11/11/49 10/10/49 92/84/49 84/76/49
f 174/1/50 138/2/50 141/3/50 175/4/50
f 176/1/51 142/2/51 145/3/51 177/4/51
f 54/54/52 53/53/52 128/120/52 127/119/52
f 26/26/53 25/25/53 178/122/53 105/97/53
f 179/1/54 146/2/54 149/3/54 180/4/54
f 181/1/55 150/2/55 153/3/55 182/4/55
f 66/66/56 65/65/56 97/89/56 96/88/56
f 58/58/57 26/26/57 105/97/57 104/96/57
f 63/63/58 62/62/58 100/92/58 99/91/58
f 183/1/59 158/2/59 161/3/59 184/4/59
f 185/1/60 154/2/60 157/3/60 186/4/60
f 3/1/61 2/2/61 76/3/61 75/4/61
f 12/12/62 45/45/62 82/74/62 81/73/62
f 187/1/63 162/2/63 165/3/63 188/4/63
f 60/60/64 59/59/64 103/95/64 102/94/64
f 189/1/65 166/2/65 169/3/65 190/4/65
f 42/42/66 22/22/66 80/72/66 79/71/66
f 191/1/67 170/2/67 171/3/67 192/4/67
f 193/1/68 172/2/68 173/3/68 194/4/68
f 7/7/69 57/57/69 124/116/69 123/115/69
f 49/49/40 10/10/40 92/84/40 91/83/40
f 23/23/70 22/22/70 80/72/70 87/79/70
f 130/1/71 174/2/71 175/3/71 131/4/71
f 134/1/72 176/2/72 177/3/72 135/4/72
f 55/55/73 54/54/73 127/119/73 126/118/73
f 25/25/74 24/24/74 85/77/74 178/122/74
f 139/1/75 179/2/75 180/3/75 140/4/75
f 143/1/76 181/2/76 182/3/76 144/4/76
f 52/52/77 66/66/77 96/88/77 95/87/77
f 46/46/61 23/23/61 87/79/61 86/78/61
f 64/64/78 63/63/78 99/91/78 98/90/78
f 147/1/79 183/2/79 184/3/79 148/4/79
f 151/1/80 185/2/80 186/3/80 152/4/80
f 4/1/81 3/2/81 75/3/81 74/4/81
f 44/44/82 11/11/82 84/76/82 83/75/82
f 155/1/83 187/2/83 188/3/83 156/4/83
f 61/61/84 60/60/84 102/94/84 101/93/84
f 159/1/85 189/2/85 190/3/85 160/4/85
f 51/51/86 50/50/86 94/86/86 93/85/86
f 43/43/87 42/42/87 79/71/87 78/70/87
f 163/1/88 191/2/88 192/3/88 164/4/88
f 167/1/89 193/2/89 194/3/89 168/4/89
f 9/9/90 51/51/90 93/85/90 90/82/90
f 119/111/91 195/123/91 196/124/91 120/112/91
f 118/110/92 197/125/92 195/123/92 119/111/92
f 117/109/93 198/126/93 197/125/93 118/110/93
f 116/108/94 199/127/94 198/126/94 117/109/94
f 115/107/95 200/128/95 199/127/95 116/108/95
f 114/106/96 201/129/96 200/128/96 115/107/96
f 113/105/97 202/130/97 201/129/97 114/106/97
f 112/104/98 203/131/98 202/130/98 113/105/98
f 111/103/99 204/132/99 203/131/99 112/104/99
f 110/102/100 205/133/100 204/132/100 111/103/100
f 109/101/101 206/134/101 205/133/101 110/102/101
f 108/100/102 207/135/102 206/134/102 109/101/102
f 107/99/103 208/136/103 207/135/103 108/100/103
f 106/98/104 209/137/104 208/136/104 107/99/104
f 105/97/57 210/138/57 209/137/57 106/98/57
f 178/122/105 211/139/105 210/138/105 105/97/105
f 85/77/74 212/140/74 211/139/74 178/122/74
f 87/79/34 213/141/34 212/140/34 85/77/34
f 80/72/70 214/142/70 213/141/70 87/79/70
f 77/69/34 215/143/34 214/142/34 80/72/34
f 84/76/81 216/144/81 217/145/81 81/73/81
f 92/84/49 218/146/49 216/144/49 84/76/49
f 90/82/81 219/147/81 218/146/81 92/84/81
f 137/121/25 220/148/25 219/147/25 90/82/25
f 123/115/106 221/149/106 220/148/106 137/121/106
f 122/114/69 222/150/69 221/149/69 123/115/69
f 20/20/107 223/151/107 215/143/107 21/21/107
f 224/152/108 13/13/108 12/12/108 217/145/108
f 225/153/61 226/154/61 227/155/61 228/156/61
f 223/157/109 20/158/109 229/159/109 230/160/109
f 231/161/110 232/162/110 13/163/110 224/164/110
f 233/1/111 234/2/111 235/3/111 236/4/111
f 236/1/112 235/2/112 237/3/112 238/4/112
f 238/1/113 237/2/113 239/3/113 240/4/113
f 240/1/114 239/2/114 241/3/114 242/4/114
f 242/1/115 241/2/115 243/3/115 244/4/115
f 244/1/116 243/2/116 245/3/116 246/4/116
f 246/1/117 245/2/117 247/3/117 248/4/117
f 248/1/118 247/2/118 249/3/118 250/4/118
f 250/1/119 249/2/119 251/3/119 252/4/119
f 252/1/120 251/2/120 253/3/120 254/4/120
f 254/1/121 253/2/121 255/3/121 256/4/121
f 256/1/122 255/2/122 257/3/122 258/4/122
f 258/1/123 257/2/123 259/3/123 260/4/123
f 260/1/124 259/2/124 261/3/124 262/4/124
f 262/1/125 261/2/125 263/3/125 264/4/125
f 264/1/126 263/2/126 265/3/126 266/4/126
f 266/1/127 265/2/127 267/3/127 268/4/127
f 268/1/128 267/2/128 269/3/128 270/4/128
f 270/1/129 269/2/129 271/3/129 272/4/129
f 272/1/130 271/2/130 273/3/130 274/4/130
f 274/1/131 273/2/131 275/3/131 276/4/131
f 276/1/132 275/2/132 277/3/132 278/4/132
f 278/1/133 277/2/133 279/3/133 280/4/133
f 280/1/134 279/2/134 281/3/134 282/4/134
f 282/1/135 281/2/135 283/3/135 284/4/135
f 284/1/136 283/2/136 285/3/136 286/4/136
f 286/1/137 285/2/137 287/3/137 288/4/137
f 288/1/138 287/2/138 289/3/138 290/4/138
f 290/1/139 289/2/139 291/3/139 292/4/139
f 292/1/140 291/2/140 293/3/140 294/4/140
f 235/165/141 234/166/141 295/167/141 293/168/141 291/169/141 289/170/141 287/171/141 285/172/141 283/173/141 281/174/141 279/175/141 277/176/141 275/177/141 273/178/141 271/179/141 269/180/141 267/181/141 265/182/141 263/183/141 261/184/141 259/185/141 257/186/141 255/187/141 253/188/141 251/189/141 249/190/141 247/191/141 245/192/141 243/193/141 241/194/141 239/195/141 237/196/141
f 296/1/142 295/2/142 234/3/142 233/4/142
f 294/1/143 293/2/143 295/3/143 296/4/143
f 233/165/144 236/166/144 238/167/144 240/168/144 242/169/144 244/170/144 246/171/144 248/172/144 250/173/144 252/174/144 254/175/144 256/176/144 258/177/144 260/178/144 262/179/144 264/180/144 266/181/144 268/182/144 270/183/144 272/184/144 274/185/144 276/186/144 278/187/144 280/188/144 282/189/144 284/190/144 286/191/144 288/192/144 290/193/144 292/194/144 294/195/144 296/196/144
f 297/1/111 298/2/111 299/3/111 300/4/111
f 300/1/112 299/2/112 301/3/112 302/4/112
f 302/1/113 301/2/113 303/3/113 304/4/113
f 304/1/114 303/2/114 305/3/114 306/4/114
f 306/1/115 305/2/115 307/3/115 308/4/115
f 308/1/116 307/2/116 309/3/116 310/4/116
f 310/1/117 309/2/117 311/3/117 312/4/117
f 312/1/118 311/2/118 313/3/118 314/4/118
f 314/1/119 313/2/119 315/3/119 316/4/119
f 316/1/120 315/2/120 317/3/120 318/4/120
f 318/1/121 317/2/121 319/3/121 320/4/121
f 320/1/122 319/2/122 321/3/122 322/4/122
f 322/1/123 321/2/123 323/3/123 324/4/123
f 324/1/124 323/2/124 325/3/124 326/4/124
f 326/1/125 325/2/125 327/3/125 328/4/125
f 328/1/126 327/2/126 329/3/126 330/4/126
f 330/1/127 329/2/127 331/3/127 332/4/127
f 332/1/128 331/2/128 333/3/128 334/4/128
f 334/1/129 333/2/129 335/3/129 336/4/129
f 336/1/130 335/2/130 337/3/130 338/4/130
f 338/1/131 337/2/131 339/3/131 340/4/131
f 340/1/132 339/2/132 341/3/132 342/4/132
f 342/1/133 341/2/133 343/3/133 344/4/133
f 344/1/134 343/2/134 345/3/134 346/4/134
f 346/1/135 345/2/135 347/3/135 348/4/135
f 348/1/136 347/2/136 349/3/136 350/4/136
f 350/1/137 349/2/137 351/3/137 352/4/137
f 352/1/138 351/2/138 353/3/138 354/4/138
f 354/1/139 353/2/139 355/3/139 356/4/139
f 356/1/140 355/2/140 357/3/140 358/4/140
f 299/165/141 298/166/141 359/167/141 357/168/141 355/169/141 353/170/141 351/171/141 349/172/141 347/173/141 345/174/141 343/175/141 341/176/141 339/177/141 337/178/141 335/179/141 333/180/141 331/181/141 329/182/141 327/183/141 325/184/141 323/185/141 321/186/141 319/187/141 317/188/141 315/189/141 313/190/141 311/191/141 309/192/141 307/193/141 305/194/141 303/195/141 301/196/141
f 360/1/142 359/2/142 298/3/142 297/4/142
f 358/1/143 357/2/143 359/3/143 360/4/143
f 297/165/144 300/166/144 302/167/144 304/168/144 306/169/144 308/170/144 310/171/144 312/172/144 314/173/144 316/174/144 318/175/144 320/176/144 322/177/144 324/178/144 326/179/144 328/180/144 330/181/144 332/182/144 334/183/144 336/184/144 338/185/144 340/186/144 342/187/144 344/188/144 346/189/144 348/190/144 350/191/144 352/192/144 354/193/144 356/194/144 358/195/144 360/196/144
f 121/197/145 196/124/145 195/123/145 197/125/145 198/126/145 199/127/145 200/128/145 201/129/145 202/130/145 203/131/145 204/132/145 205/133/145 206/134/145 207/135/145 208/136/145 209/137/145 210/138/145 211/139/145 212/140/145 213/141/145 214/142/145 215/143/145 223/151/145 230/198/145 361/199/145 225/153/145 228/156/145 362/200/145 231/201/145 224/152/145 217/145/145 216/144/145 218/146/145 219/147/145 220/148/145 221/149/145 222/150/145
f 223/202/1 225/153/1 361/199/1 230/198/1
f 228/156/1 224/203/1 231/201/1 362/200/1
f 227/155/146 71/67/146 363/204/146 228/156/146
f 364/205/81 226/154/81 225/153/81 365/206/81
f 228/156/147 363/204/147 224/203/147
f 223/202/148 365/206/148 225/153/148
f 223/202/40 365/206/40 72/68/40 20/20/40
f 224/203/61 363/204/61 71/67/61 13/13/61
f 366/207/149 367/208/149 368/209/149 369/210/149 215/211/149 213/212/149
f 370/213/150 371/214/150 372/215/150 373/216/150 218/217/150 217/218/150
f 374/1/151 375/2/151 130/3/151 129/4/151
f 376/1/152 377/2/152 134/3/152 133/4/152
f 378/1/153 379/2/153 139/3/153 138/4/153
f 380/1/154 381/2/154 143/3/154 142/4/154
f 382/1/155 383/2/155 147/3/155 146/4/155
f 384/1/156 385/2/156 151/3/156 150/4/156
f 386/1/157 387/2/157 155/3/157 154/4/157
f 388/1/158 389/2/158 159/3/158 158/4/158
f 390/1/159 391/2/159 163/3/159 162/4/159
f 392/1/160 393/2/160 167/3/160 166/4/160
f 394/1/161 374/2/161 129/3/161 170/4/161
f 395/1/162 376/2/162 133/3/162 172/4/162
f 396/1/163 378/2/163 138/3/163 174/4/163
f 397/1/164 380/2/164 142/3/164 176/4/164
f 398/1/165 382/2/165 146/3/165 179/4/165
f 399/1/166 384/2/166 150/3/166 181/4/166
f 400/1/167 388/2/167 158/3/167 183/4/167
f 401/1/168 386/2/168 154/3/168 185/4/168
f 402/1/169 390/2/169 162/3/169 187/4/169
f 403/1/170 392/2/170 166/3/170 189/4/170
f 404/1/171 394/2/171 170/3/171 191/4/171
f 405/1/172 395/2/172 172/3/172 193/4/172
f 375/1/173 396/2/173 174/3/173 130/4/173
f 377/1/174 397/2/174 176/3/174 134/4/174
f 379/1/175 398/2/175 179/3/175 139/4/175
f 381/1/176 399/2/176 181/3/176 143/4/176
f 383/1/177 400/2/177 183/3/177 147/4/177
f 385/1/178 401/2/178 185/3/178 151/4/178
f 387/1/179 402/2/179 187/3/179 155/4/179
f 389/1/180 403/2/180 189/3/180 159/4/180
f 391/1/181 404/2/181 191/3/181 163/4/181
f 393/1/182 405/2/182 193/3/182 167/4/182
f 384/1/183 67/2/183 70/3/183 385/4/183
f 399/1/184 406/2/184 67/3/184 384/4/184
f 381/1/185 407/2/185 406/3/185 399/4/185
f 380/1/186 408/2/186 407/3/186 381/4/186
f 397/1/187 409/2/187 408/3/187 380/4/187
f 377/1/188 410/2/188 409/3/188 397/4/188
f 376/1/189 411/2/189 410/3/189 377/4/189
f 395/1/190 412/2/190 411/3/190 376/4/190
f 405/1/191 413/2/191 412/3/191 395/4/191
f 393/1/192 414/2/192 413/3/192 405/4/192
f 392/1/193 415/2/193 414/3/193 393/4/193
f 403/1/194 416/2/194 415/3/194 392/4/194
f 389/1/195 417/2/195 416/3/195 403/4/195
f 388/1/196 418/2/196 417/3/196 389/4/196
f 400/1/197 419/2/197 418/3/197 388/4/197
f 383/1/198 420/2/198 419/3/198 400/4/198
f 382/1/199 421/2/199 420/3/199 383/4/199
f 398/1/200 422/2/200 421/3/200 382/4/200
f 379/1/201 423/2/201 422/3/201 398/4/201
f 378/1/202 424/2/202 423/3/202 379/4/202
f 396/1/203 425/2/203 424/3/203 378/4/203
f 375/1/204 426/2/204 425/3/204 396/4/204
f 374/1/205 427/2/205 426/3/205 375/4/205
f 394/1/206 428/2/206 427/3/206 374/4/206
f 404/1/207 429/2/207 428/3/207 394/4/207
f 391/1/208 430/2/208 429/3/208 404/4/208
f 390/1/209 431/2/209 430/3/209 391/4/209
f 402/1/210 432/2/210 431/3/210 390/4/210
f 387/1/211 433/2/211 432/3/211 402/4/211
f 386/1/212 434/2/212 433/3/212 387/4/212
f 401/1/213 435/2/213 434/3/213 386/4/213
f 385/1/214 70/2/214 435/3/214 401/4/214
f 186/1/215 436/2/215 437/3/215 152/4/215
f 157/1/216 438/2/216 436/3/216 186/4/216
f 156/1/217 439/2/217 438/3/217 157/4/217
f 188/1/218 440/2/218 439/3/218 156/4/218
f 165/1/219 441/2/219 440/3/219 188/4/219
f 164/1/220 442/2/220 441/3/220 165/4/220
f 192/1/221 443/2/221 442/3/221 164/4/221
f 171/1/222 444/2/222 443/3/222 192/4/222
f 132/1/223 445/2/223 444/3/223 171/4/223
f 131/1/224 446/2/224 445/3/224 132/4/224
f 175/1/225 447/2/225 446/3/225 131/4/225
f 141/1/226 448/2/226 447/3/226 175/4/226
f 140/1/227 449/2/227 448/3/227 141/4/227
f 180/1/228 450/2/228 449/3/228 140/4/228
f 149/1/229 451/2/229 450/3/229 180/4/229
f 148/1/230 452/2/230 451/3/230 149/4/230
f 184/1/231 453/2/231 452/3/231 148/4/231
f 161/1/232 454/2/232 453/3/232 184/4/232
f 160/1/233 455/2/233 454/3/233 161/4/233
f 190/1/234 456/2/234 455/3/234 160/4/234
f 169/1/235 457/2/235 456/3/235 190/4/235
f 168/1/236 458/2/236 457/3/236 169/4/236
f 194/1/237 459/2/237 458/3/237 168/4/237
f 173/1/238 460/2/238 459/3/238 194/4/238
f 136/1/239 461/2/239 460/3/239 173/4/239
f 135/1/240 462/2/240 461/3/240 136/4/240
f 177/1/241 463/2/241 462/3/241 135/4/241
f 145/1/242 464/2/242 463/3/242 177/4/242
f 144/1/243 465/2/243 464/3/243 145/4/243
f 182/1/244 466/2/244 465/3/244 144/4/244
f 153/1/245 467/2/245 466/3/245 182/4/245
f 152/1/246 437/2/246 467/3/246 153/4/246
f 406/1/247 468/2/247 68/3/247 67/4/247
f 407/1/248 469/2/248 468/3/248 406/4/248
f 408/1/249 470/2/249 469/3/249 407/4/249
f 409/1/250 471/2/250 470/3/250 408/4/250
f 410/1/251 472/2/251 471/3/251 409/4/251
f 411/1/252 473/2/252 472/3/252 410/4/252
f 412/1/253 474/2/253 473/3/253 411/4/253
f 413/1/254 475/2/254 474/3/254 412/4/254
f 414/1/255 476/2/255 475/3/255 413/4/255
f 415/1/256 477/2/256 476/3/256 414/4/256
f 416/1/257 478/2/257 477/3/257 415/4/257
f 417/1/258 479/2/258 478/3/258 416/4/258
f 418/1/259 480/2/259 479/3/259 417/4/259
f 419/1/260 481/2/260 480/3/260 418/4/260
f 420/1/261 482/2/261 481/3/261 419/4/261
f 421/1/262 483/2/262 482/3/262 420/4/262
f 422/1/263 484/2/263 483/3/263 421/4/263
f 423/1/264 485/2/264 484/3/264 422/4/264
f 424/1/265 486/2/265 485/3/265 423/4/265
f 425/1/266 487/2/266 486/3/266 424/4/266
f 426/1/267 488/2/267 487/3/267 425/4/267
f 427/1/268 489/2/268 488/3/268 426/4/268
f 428/1/269 490/2/269 489/3/269 427/4/269
f 429/1/270 491/2/270 490/3/270 428/4/270
f 430/1/271 492/2/271 491/3/271 429/4/271
f 431/1/272 493/2/272 492/3/272 430/4/272
f 432/1/273 494/2/273 493/3/273 431/4/273
f 433/1/274 495/2/274 494/3/274 432/4/274
f 434/1/275 496/2/275 495/3/275 433/4/275
f 435/1/276 497/2/276 496/3/276 434/4/276
f 70/1/277 69/2/277 497/3/277 435/4/277
f 436/1/278 498/2/278 499/3/278 437/4/278
f 438/1/279 500/2/279 498/3/279 436/4/279
f 439/1/280 501/2/280 500/3/280 438/4/280
f 440/1/281 502/2/281 501/3/281 439/4/281
f 441/1/282 503/2/282 502/3/282 440/4/282
f 442/1/283 504/2/283 503/3/283 441/4/283
f 443/1/284 505/2/284 504/3/284 442/4/284
f 444/1/285 506/2/285 505/3/285 443/4/285
f 445/1/286 507/2/286 506/3/286 444/4/286
f 446/1/287 508/2/287 507/3/287 445/4/287
f 447/1/288 509/2/288 508/3/288 446/4/288
f 448/1/289 510/2/289 509/3/289 447/4/289
f 449/1/290 511/2/290 510/3/290 448/4/290
f 450/1/291 512/2/291 511/3/291 449/4/291
f 451/1/292 513/2/292 512/3/292 450/4/292
f 452/1/293 514/2/293 513/3/293 451/4/293
f 453/1/294 515/2/294 514/3/294 452/4/294
f 454/1/295 516/2/295 515/3/295 453/4/295
f 455/1/296 517/2/296 516/3/296 454/4/296
f 456/1/297 518/2/297 517/3/297 455/4/297
f 457/1/298 519/2/298 518/3/298 456/4/298
f 458/1/299 520/2/299 519/3/299 457/4/299
f 459/1/300 521/2/300 520/3/300 458/4/300
f 460/1/301 522/2/301 521/3/301 459/4/301
f 461/1/302 523/2/302 522/3/302 460/4/302
f 462/1/303 524/2/303 523/3/303 461/4/303
f 463/1/304 525/2/304 524/3/304 462/4/304
f 464/1/305 526/2/305 525/3/305 463/4/305
f 465/1/306 527/2/306 526/3/306 464/4/306
f 466/1/307 528/2/307 527/3/307 465/4/307
f 467/1/308 529/2/308 528/3/308 466/4/308
f 437/1/309 499/2/309 529/3/309 467/4/309
f 530/1/310 531/2/310 532/3/310 533/4/310
f 534/1/311 535/2/311 536/3/311 537/4/311
f 531/1/312 534/2/312 537/3/312 532/4/312
f 499/1/313 530/2/313 533/3/313 529/4/313
f 498/1/314 538/2/314 530/3/314 499/4/314
f 500/1/315 539/2/315 538/3/315 498/4/315
f 501/1/316 540/2/316 539/3/316 500/4/316
f 502/1/317 541/2/317 540/3/317 501/4/317
f 503/1/318 542/2/318 541/3/318 502/4/318
f 504/1/319 543/2/319 542/3/319 503/4/319
f 505/1/320 544/2/320 543/3/320 504/4/320
f 506/1/321 545/2/321 544/3/321 505/4/321
f 507/1/322 546/2/322 545/3/322 506/4/322
f 508/1/323 547/2/323 546/3/323 507/4/323
f 509/1/324 548/2/324 547/3/324 508/4/324
f 510/1/325 549/2/325 548/3/325 509/4/325
f 511/1/326 550/2/326 549/3/326 510/4/326
f 512/1/327 551/2/327 550/3/327 511/4/327
f 513/1/328 552/2/328 551/3/328 512/4/328
f 514/1/329 553/2/329 552/3/329 513/4/329
f 515/1/330 554/2/330 553/3/330 514/4/330
f 516/1/331 555/2/331 554/3/331 515/4/331
f 517/1/332 556/2/332 555/3/332 516/4/332
f 518/1/333 557/2/333 556/3/333 517/4/333
f 519/1/334 558/2/334 557/3/334 518/4/334
f 520/1/335 559/2/335 558/3/335 519/4/335
f 521/1/336 560/2/336 559/3/336 520/4/336
f 522/1/337 561/2/337 560/3/337 521/4/337
f 523/1/338 562/2/338 561/3/338 522/4/338
f 524/1/339 563/2/339 562/3/339 523/4/339
f 525/1/340 564/2/340 563/3/340 524/4/340
f 526/1/341 565/2/341 564/3/341 525/4/341
f 527/1/342 566/2/342 565/3/342 526/4/342
f 528/1/343 567/2/343 566/3/343 527/4/343
f 529/1/344 533/2/344 567/3/344 528/4/344
f 535/1/345 568/2/345 569/3/345 536/4/345
f 69/1/346 570/2/346 571/3/346 497/4/346
f 68/1/347 572/2/347 570/3/347 69/4/347
f 468/1/348 573/2/348 572/3/348 68/4/348
f 469/1/349 574/2/349 573/3/349 468/4/349
f 470/1/350 575/2/350 574/3/350 469/4/350
f 471/1/351 576/2/351 575/3/351 470/4/351
f 472/1/352 577/2/352 576/3/352 471/4/352
f 473/1/353 578/2/353 577/3/353 472/4/353
f 474/1/354 579/2/354 578/3/354 473/4/354
f 475/1/355 580/2/355 579/3/355 474/4/355
f 476/1/356 581/2/356 580/3/356 475/4/356
f 477/1/357 582/2/357 581/3/357 476/4/357
f 478/1/358 583/2/358 582/3/358 477/4/358
f 479/1/359 584/2/359 583/3/359 478/4/359
f 480/1/360 585/2/360 584/3/360 479/4/360
f 481/1/361 586/2/361 585/3/361 480/4/361
f 482/1/362 587/2/362 586/3/362 481/4/362
f 483/1/363 588/2/363 587/3/363 482/4/363
f 484/1/364 589/2/364 588/3/364 483/4/364
f 485/1/365 590/2/365 589/3/365 484/4/365
f 486/1/366 591/2/366 590/3/366 485/4/366
f 487/1/367 592/2/367 591/3/367 486/4/367
f 488/1/368 593/2/368 592/3/368 487/4/368
f 489/1/369 594/2/369 593/3/369 488/4/369
f 490/1/370 595/2/370 594/3/370 489/4/370
f 491/1/371 596/2/371 595/3/371 490/4/371
f 492/1/372 597/2/372 596/3/372 491/4/372
f 493/1/373 598/2/373 597/3/373 492/4/373
f 494/1/374 599/2/374 598/3/374 493/4/374
f 495/1/375 600/2/375 599/3/375 494/4/375
f 496/1/376 601/2/376 600/3/376 495/4/376
f 497/1/377 571/2/377 601/3/377 496/4/377
f 538/1/378 602/2/378 531/3/378 530/4/378
f 539/1/379 603/2/379 602/3/379 538/4/379
f 540/1/380 604/2/380 603/3/380 539/4/380
f 541/1/381 605/2/381 604/3/381 540/4/381
f 542/1/382 606/2/382 605/3/382 541/4/382
f 543/1/383 607/2/383 606/3/383 542/4/383
f 544/1/384 608/2/384 607/3/384 543/4/384
f 545/1/385 609/2/385 608/3/385 544/4/385
f 546/1/386 610/2/386 609/3/386 545/4/386
f 547/1/387 611/2/387 610/3/387 546/4/387
f 548/1/388 612/2/388 611/3/388 547/4/388
f 549/1/389 613/2/389 612/3/389 548/4/389
f 550/1/390 614/2/390 613/3/390 549/4/390
f 551/1/391 615/2/391 614/3/391 550/4/391
f 552/1/392 616/2/392 615/3/392 551/4/392
f 553/1/393 617/2/393 616/3/393 552/4/393
f 554/1/394 618/2/394 617/3/394 553/4/394
f 555/1/395 619/2/395 618/3/395 554/4/395
f 556/1/396 620/2/396 619/3/396 555/4/396
f 557/1/397 621/2/397 620/3/397 556/4/397
f 558/1/398 622/2/398 621/3/398 557/4/398
f 559/1/399 623/2/399 622/3/399 558/4/399
f 560/1/400 624/2/400 623/3/400 559/4/400
f 561/1/401 625/2/401 624/3/401 560/4/401
f 562/1/402 626/2/402 625/3/402 561/4/402
f 563/1/403 627/2/403 626/3/403 562/4/403
f 564/1/404 628/2/404 627/3/404 563/4/404
f 565/1/405 629/2/405 628/3/405 564/4/405
f 566/1/406 630/2/406 629/3/406 565/4/406
f 567/1/407 631/2/407 630/3/407 566/4/407
f 533/1/408 532/2/408 631/3/408 567/4/408
f 570/1/409 632/2/409 633/3/409 571/4/409
f 572/1/410 634/2/410 632/3/410 570/4/410
f 573/1/411 635/2/411 634/3/411 572/4/411
f 574/1/412 636/2/412 635/3/412 573/4/412
f 575/1/413 637/2/413 636/3/413 574/4/413
f 576/1/414 638/2/414 637/3/414 575/4/414
f 577/1/415 639/2/415 638/3/415 576/4/415
f 578/1/416 640/2/416 639/3/416 577/4/416
f 579/1/417 641/2/417 640/3/417 578/4/417
f 580/1/418 642/2/418 641/3/418 579/4/418
f 581/1/419 643/2/419 642/3/419 580/4/419
f 582/1/420 644/2/420 643/3/420 581/4/420
f 583/1/421 645/2/421 644/3/421 582/4/421
f 584/1/422 646/2/422 645/3/422 583/4/422
f 585/1/423 647/2/423 646/3/423 584/4/423
f 586/1/424 648/2/424 647/3/424 585/4/424
f 587/1/425 649/2/425 648/3/425 586/4/425
f 588/1/426 650/2/426 649/3/426 587/4/426
f 589/1/427 651/2/427 650/3/427 588/4/427
f 590/1/428 652/2/428 651/3/428 589/4/428
f 591/1/429 653/2/429 652/3/429 590/4/429
f 592/1/430 654/2/430 653/3/430 591/4/430
f 593/1/431 655/2/431 654/3/431 592/4/431
f 594/1/432 656/2/432 655/3/432 593/4/432
f 595/1/433 657/2/433 656/3/433 594/4/433
f 596/1/434 658/2/434 657/3/434 595/4/434
f 597/1/435 659/2/435 658/3/435 596/4/435
f 598/1/436 660/2/436 659/3/436 597/4/436
f 599/1/437 661/2/437 660/3/437 598/4/437
f 600/1/438 662/2/438 661/3/438 599/4/438
f 601/1/439 663/2/439 662/3/439 600/4/439
f 571/1/440 633/2/440 663/3/440 601/4/440
f 602/1/441 664/2/441 534/3/441 531/4/441
f 603/1/442 665/2/442 664/3/442 602/4/442
f 604/1/443 666/2/443 665/3/443 603/4/443
f 605/1/444 667/2/444 666/3/444 604/4/444
f 606/1/445 668/2/445 667/3/445 605/4/445
f 607/1/446 669/2/446 668/3/446 606/4/446
f 608/1/447 670/2/447 669/3/447 607/4/447
f 609/1/448 671/2/448 670/3/448 608/4/448
f 610/1/449 672/2/449 671/3/449 609/4/449
f 611/1/450 673/2/450 672/3/450 610/4/450
f 612/1/451 674/2/451 673/3/451 611/4/451
f 613/1/452 675/2/452 674/3/452 612/4/452
f 614/1/453 676/2/453 675/3/453 613/4/453
f 615/1/454 677/2/454 676/3/454 614/4/454
f 616/1/455 678/2/455 677/3/455 615/4/455
f 617/1/456 679/2/456 678/3/456 616/4/456
f 618/1/457 680/2/457 679/3/457 617/4/457
f 619/1/458 681/2/458 680/3/458 618/4/458
f 620/1/459 682/2/459 681/3/459 619/4/459
f 621/1/460 683/2/460 682/3/460 620/4/460
f 622/1/461 684/2/461 683/3/461 621/4/461
f 623/1/462 685/2/462 684/3/462 622/4/462
f 624/1/463 686/2/463 685/3/463 623/4/463
f 625/1/464 687/2/464 686/3/464 624/4/464
f 626/1/465 688/2/465 687/3/465 625/4/465
f 627/1/466 689/2/466 688/3/466 626/4/466
f 628/1/467 690/2/467 689/3/467 627/4/467
f 629/1/468 691/2/468 690/3/468 628/4/468
f 630/1/469 692/2/469 691/3/469 629/4/469
f 631/1/470 693/2/470 692/3/470 630/4/470
f 532/1/471 537/2/471 693/3/471 631/4/471
f 569/165/1 568/166/1 694/167/1 695/168/1 696/169/1 697/170/1 698/171/1 699/172/1 700/173/1 701/174/1 702/175/1 703/176/1 704/177/1 705/178/1 706/179/1 707/180/1 708/181/1 709/182/1 710/183/1 711/184/1 712/185/1 713/186/1 714/187/1 715/188/1 716/189/1 717/190/1 718/191/1 719/192/1 720/193/1 721/194/1 722/195/1 723/196/1
f 632/1/472 724/2/472 725/3/472 633/4/472
f 634/1/473 726/2/473 724/3/473 632/4/473
f 635/1/474 727/2/474 726/3/474 634/4/474
f 636/1/475 728/2/475 727/3/475 635/4/475
f 637/1/476 729/2/476 728/3/476 636/4/476
f 638/1/477 730/2/477 729/3/477 637/4/477
f 639/1/478 731/2/478 730/3/478 638/4/478
f 640/1/479 732/2/479 731/3/479 639/4/479
f 641/1/480 733/2/480 732/3/480 640/4/480
f 642/1/481 734/2/481 733/3/481 641/4/481
f 643/1/482 735/2/482 734/3/482 642/4/482
f 644/1/483 736/2/483 735/3/483 643/4/483
f 645/1/484 737/2/484 736/3/484 644/4/484
f 646/1/485 738/2/485 737/3/485 645/4/485
f 647/1/486 739/2/486 738/3/486 646/4/486
f 648/1/487 740/2/487 739/3/487 647/4/487
f 649/1/488 741/2/488 740/3/488 648/4/488
f 650/1/489 742/2/489 741/3/489 649/4/489
f 651/1/490 743/2/490 742/3/490 650/4/490
f 652/1/491 744/2/491 743/3/491 651/4/491
f 653/1/492 745/2/492 744/3/492 652/4/492
f 654/1/493 746/2/493 745/3/493 653/4/493
f 655/1/494 747/2/494 746/3/494 654/4/494
f 656/1/495 748/2/495 747/3/495 655/4/495
f 657/1/496 749/2/496 748/3/496 656/4/496
f 658/1/497 750/2/497 749/3/497 657/4/497
f 659/1/498 751/2/498 750/3/498 658/4/498
f 660/1/499 752/2/499 751/3/499 659/4/499
f 661/1/500 753/2/500 752/3/500 660/4/500
f 662/1/501 754/2/501 753/3/501 661/4/501
f 663/1/502 755/2/502 754/3/502 662/4/502
f 633/1/503 725/2/503 755/3/503 663/4/503
f 664/1/504 756/2/504 535/3/504 534/4/504
f 665/1/505 757/2/505 756/3/505 664/4/505
f 666/1/506 758/2/506 757/3/506 665/4/506
f 667/1/507 759/2/507 758/3/507 666/4/507
f 668/1/508 760/2/508 759/3/508 667/4/508
f 669/1/509 761/2/509 760/3/509 668/4/509
f 670/1/510 762/2/510 761/3/510 669/4/510
f 671/1/511 763/2/511 762/3/511 670/4/511
f 672/1/512 764/2/512 763/3/512 671/4/512
f 673/1/513 765/2/513 764/3/513 672/4/513
f 674/1/514 766/2/514 765/3/514 673/4/514
f 675/1/515 767/2/515 766/3/515 674/4/515
f 676/1/516 768/2/516 767/3/516 675/4/516
f 677/1/517 769/2/517 768/3/517 676/4/517
f 678/1/518 770/2/518 769/3/518 677/4/518
f 679/1/519 771/2/519 770/3/519 678/4/519
f 680/1/520 772/2/520 771/3/520 679/4/520
f 681/1/521 773/2/521 772/3/521 680/4/521
f 682/1/522 774/2/522 773/3/522 681/4/522
f 683/1/523 775/2/523 774/3/523 682/4/523
f 684/1/524 776/2/524 775/3/524 683/4/524
f 685/1/525 777/2/525 776/3/525 684/4/525
f 686/1/526 778/2/526 777/3/526 685/4/526
f 687/1/527 779/2/527 778/3/527 686/4/527
f 688/1/528 780/2/528 779/3/528 687/4/528
f 689/1/529 781/2/529 780/3/529 688/4/529
f 690/1/530 782/2/530 781/3/530 689/4/530
f 691/1/531 783/2/531 782/3/531 690/4/531
f 692/1/532 784/2/532 783/3/532 691/4/532
f 693/1/533 785/2/533 784/3/533 692/4/533
f 537/1/534 536/2/534 785/3/534 693/4/534
f 724/1/535 786/2/535 787/3/535 725/4/535
f 726/1/536 788/2/536 786/3/536 724/4/536
f 727/1/537 789/2/537 788/3/537 726/4/537
f 728/1/538 790/2/538 789/3/538 727/4/538
f 729/1/539 791/2/539 790/3/539 728/4/539
f 730/1/540 792/2/540 791/3/540 729/4/540
f 731/1/541 793/2/541 792/3/541 730/4/541
f 732/1/542 794/2/542 793/3/542 731/4/542
f 733/1/543 795/2/543 794/3/543 732/4/543
f 734/1/544 796/2/544 795/3/544 733/4/544
f 735/1/545 797/2/545 796/3/545 734/4/545
f 736/1/546 798/2/546 797/3/546 735/4/546
f 737/1/547 799/2/547 798/3/547 736/4/547
f 738/1/548 800/2/548 799/3/548 737/4/548
f 739/1/549 801/2/549 800/3/549 738/4/549
f 740/1/550 802/2/550 801/3/550 739/4/550
f 741/1/551 803/2/551 802/3/551 740/4/551
f 742/1/552 804/2/552 803/3/552 741/4/552
f 743/1/553 805/2/553 804/3/553 742/4/553
f 744/1/554 806/2/554 805/3/554 743/4/554
f 745/1/555 807/2/555 806/3/555 744/4/555
f 746/1/556 808/2/556 807/3/556 745/4/556
f 747/1/557 809/2/557 808/3/557 746/4/557
f 748/1/558 810/2/558 809/3/558 747/4/558
f 749/1/559 811/2/559 810/3/559 748/4/559
f 750/1/560 812/2/560 811/3/560 749/4/560
f 751/1/561 813/2/561 812/3/561 750/4/561
f 752/1/562 814/2/562 813/3/562 751/4/562
f 753/1/563 815/2/563 814/3/563 752/4/563
f 754/1/564 816/2/564 815/3/564 753/4/564
f 755/1/565 817/2/565 816/3/565 754/4/565
f 725/1/566 787/2/566 817/3/566 755/4/566
f 756/1/567 694/2/567 568/3/567 535/4/567
f 757/1/568 695/2/568 694/3/568 756/4/568
f 758/1/569 696/2/569 695/3/569 757/4/569
f 759/1/570 697/2/570 696/3/570 758/4/570
f 760/1/571 698/2/571 697/3/571 759/4/571
f 761/1/572 699/2/572 698/3/572 760/4/572
f 762/1/573 700/2/573 699/3/573 761/4/573
f 763/1/574 701/2/574 700/3/574 762/4/574
f 764/1/575 702/2/575 701/3/575 763/4/575
f 765/1/576 703/2/576 702/3/576 764/4/576
f 766/1/577 704/2/577 703/3/577 765/4/577
f 767/1/578 705/2/578 704/3/578 766/4/578
f 768/1/579 706/2/579 705/3/579 767/4/579
f 769/1/580 707/2/580 706/3/580 768/4/580
f 770/1/581 708/2/581 707/3/581 769/4/581
f 771/1/582 709/2/582 708/3/582 770/4/582
f 772/1/583 710/2/583 709/3/583 771/4/583
f 773/1/584 711/2/584 710/3/584 772/4/584
f 774/1/585 712/2/585 711/3/585 773/4/585
f 775/1/586 713/2/586 712/3/586 774/4/586
f 776/1/587 714/2/587 713/3/587 775/4/587
f 777/1/588 715/2/588 714/3/588 776/4/588
f 778/1/589 716/2/589 715/3/589 777/4/589
f 779/1/590 717/2/590 716/3/590 778/4/590
f 780/1/591 718/2/591 717/3/591 779/4/591
f 781/1/592 719/2/592 718/3/592 780/4/592
f 782/1/593 720/2/593 719/3/593 781/4/593
f 783/1/594 721/2/594 720/3/594 782/4/594
f 784/1/595 722/2/595 721/3/595 783/4/595
f 785/1/596 723/2/596 722/3/596 784/4/596
f 536/1/597 569/2/597 723/3/597 785/4/597
f 818/165/13 819/166/13 820/167/13 821/168/13 822/169/13 823/170/13 824/171/13 825/172/13 826/173/13 827/174/13 828/175/13 829/176/13 830/177/13 831/178/13 832/179/13 833/180/13 834/181/13 835/182/13 836/183/13 837/184/13 838/185/13 839/186/13 840/187/13 841/188/13 842/189/13 843/190/13 844/191/13 845/192/13 846/193/13 847/194/13 848/195/13 849/196/13
f 786/1/598 819/2/598 818/3/598 787/4/598
f 788/1/599 820/2/599 819/3/599 786/4/599
f 789/1/600 821/2/600 820/3/600 788/4/600
f 790/1/601 822/2/601 821/3/601 789/4/601
f 791/1/602 823/2/602 822/3/602 790/4/602
f 792/1/603 824/2/603 823/3/603 791/4/603
f 793/1/604 825/2/604 824/3/604 792/4/604
f 794/1/605 826/2/605 825/3/605 793/4/605
f 795/1/606 827/2/606 826/3/606 794/4/606
f 796/1/607 828/2/607 827/3/607 795/4/607
f 797/1/608 829/2/608 828/3/608 796/4/608
f 798/1/609 830/2/609 829/3/609 797/4/609
f 799/1/610 831/2/610 830/3/610 798/4/610
f 800/1/611 832/2/611 831/3/611 799/4/611
f 801/1/612 833/2/612 832/3/612 800/4/612
f 802/1/613 834/2/613 833/3/613 801/4/613
f 803/1/614 835/2/614 834/3/614 802/4/614
f 804/1/615 836/2/615 835/3/615 803/4/615
f 805/1/616 837/2/616 836/3/616 804/4/616
f 806/1/617 838/2/617 837/3/617 805/4/617
f 807/1/618 839/2/618 838/3/618 806/4/618
f 808/1/619 840/2/619 839/3/619 807/4/619
f 809/1/620 841/2/620 840/3/620 808/4/620
f 810/1/621 842/2/621 841/3/621 809/4/621
f 811/1/622 843/2/622 842/3/622 810/4/622
f 812/1/623 844/2/623 843/3/623 811/4/623
f 813/1/624 845/2/624 844/3/624 812/4/624
f 814/1/625 846/2/625 845/3/625 813/4/625
f 815/1/626 847/2/626 846/3/626 814/4/626
f 816/1/627 848/2/627 847/3/627 815/4/627
f 817/1/628 849/2/628 848/3/628 816/4/628
f 787/1/629 818/2/629 849/3/629 817/4/629
l 858 866
l 855 232
l 17 860
l 851 862
l 66 851
l 850 861
l 14 855
l 16 859
l 65 850
l 864 363
l 856 364
l 857 229
l 77 369
l 71 853
l 859 227
l 15 854
l 64 852
l 854 865
l 852 863
l 19 857
l 232 229
l 72 856
l 860 226
l 853 864
l 18 858
